ARM GAS  C:\Users\Usuario\AppData\Local\Temp\ccYKd0IS.s 			page 1


   1              		.syntax unified
   2              		.cpu cortex-m0
   3              		.fpu softvfp
   4              		.eabi_attribute 20, 1
   5              		.eabi_attribute 21, 1
   6              		.eabi_attribute 23, 3
   7              		.eabi_attribute 24, 1
   8              		.eabi_attribute 25, 1
   9              		.eabi_attribute 26, 1
  10              		.eabi_attribute 30, 1
  11              		.eabi_attribute 34, 0
  12              		.eabi_attribute 18, 4
  13              		.thumb
  14              		.syntax unified
  15              		.file	"bootloadable.c"
  16              		.text
  17              	.Ltext0:
  18              		.cfi_sections	.debug_frame
  19              		.section	.text.bootloadable_Load,"ax",%progbits
  20              		.align	2
  21              		.global	bootloadable_Load
  22              		.code	16
  23              		.thumb_func
  24              		.type	bootloadable_Load, %function
  25              	bootloadable_Load:
  26              	.LFB0:
  27              		.file 1 "Generated_Source\\PSoC4\\bootloadable.c"
   1:Generated_Source\PSoC4/bootloadable.c **** /****************************************************************************//**
   2:Generated_Source\PSoC4/bootloadable.c **** * \file bootloadable.c
   3:Generated_Source\PSoC4/bootloadable.c **** * \version 1.60
   4:Generated_Source\PSoC4/bootloadable.c **** *
   5:Generated_Source\PSoC4/bootloadable.c **** * \brief
   6:Generated_Source\PSoC4/bootloadable.c **** *   Provides an API for the Bootloadable application.
   7:Generated_Source\PSoC4/bootloadable.c **** *
   8:Generated_Source\PSoC4/bootloadable.c **** ********************************************************************************
   9:Generated_Source\PSoC4/bootloadable.c **** * \copyright
  10:Generated_Source\PSoC4/bootloadable.c **** * Copyright 2008-2015, Cypress Semiconductor Corporation.  All rights reserved.
  11:Generated_Source\PSoC4/bootloadable.c **** * You may use this file only in accordance with the license, terms, conditions,
  12:Generated_Source\PSoC4/bootloadable.c **** * disclaimers, and limitations in the end user license agreement accompanying
  13:Generated_Source\PSoC4/bootloadable.c **** * the software package with which this file was provided.
  14:Generated_Source\PSoC4/bootloadable.c **** *******************************************************************************/
  15:Generated_Source\PSoC4/bootloadable.c **** 
  16:Generated_Source\PSoC4/bootloadable.c **** #include "bootloadable.h"
  17:Generated_Source\PSoC4/bootloadable.c **** 
  18:Generated_Source\PSoC4/bootloadable.c **** /**
  19:Generated_Source\PSoC4/bootloadable.c ****  \defgroup functions_group Functions
  20:Generated_Source\PSoC4/bootloadable.c ****  @{
  21:Generated_Source\PSoC4/bootloadable.c **** */
  22:Generated_Source\PSoC4/bootloadable.c **** 
  23:Generated_Source\PSoC4/bootloadable.c **** #if (CYDEV_PROJ_TYPE == CYDEV_PROJ_TYPE_LOADABLEANDBOOTLOADER)
  24:Generated_Source\PSoC4/bootloadable.c **** static cystatus bootloadable_WriteFlashByte(const uint32 address, const uint8 inputValue) CYLARGE \
  25:Generated_Source\PSoC4/bootloadable.c ****                                ;
  26:Generated_Source\PSoC4/bootloadable.c **** #endif /*(CYDEV_PROJ_TYPE == CYDEV_PROJ_TYPE_LOADABLEANDBOOTLOADER)*/
  27:Generated_Source\PSoC4/bootloadable.c **** 
  28:Generated_Source\PSoC4/bootloadable.c **** /*******************************************************************************
  29:Generated_Source\PSoC4/bootloadable.c **** * Function Name: bootloadable_Load
  30:Generated_Source\PSoC4/bootloadable.c **** ****************************************************************************//**
ARM GAS  C:\Users\Usuario\AppData\Local\Temp\ccYKd0IS.s 			page 2


  31:Generated_Source\PSoC4/bootloadable.c **** *
  32:Generated_Source\PSoC4/bootloadable.c **** * \brief
  33:Generated_Source\PSoC4/bootloadable.c **** *  Schedules the Bootloader/Launcher to be launched and then performs
  34:Generated_Source\PSoC4/bootloadable.c **** *  a software reset to launch it
  35:Generated_Source\PSoC4/bootloadable.c **** *
  36:Generated_Source\PSoC4/bootloadable.c **** * \return
  37:Generated_Source\PSoC4/bootloadable.c **** *  This method will never return. It will load a new application and reset
  38:Generated_Source\PSoC4/bootloadable.c **** *  the device.
  39:Generated_Source\PSoC4/bootloadable.c **** *
  40:Generated_Source\PSoC4/bootloadable.c **** *******************************************************************************/
  41:Generated_Source\PSoC4/bootloadable.c **** void bootloadable_Load(void) 
  42:Generated_Source\PSoC4/bootloadable.c **** {
  28              		.loc 1 42 0
  29              		.cfi_startproc
  30              		@ args = 0, pretend = 0, frame = 0
  31              		@ frame_needed = 0, uses_anonymous_args = 0
  32 0000 10B5     		push	{r4, lr}
  33              		.cfi_def_cfa_offset 8
  34              		.cfi_offset 4, -8
  35              		.cfi_offset 14, -4
  43:Generated_Source\PSoC4/bootloadable.c ****     /* Schedule Bootloader to start after reset */
  44:Generated_Source\PSoC4/bootloadable.c ****     bootloadable_SET_RUN_TYPE(bootloadable_SCHEDULE_BTLDR);
  36              		.loc 1 44 0
  37 0002 4022     		movs	r2, #64
  38 0004 024B     		ldr	r3, .L2
  39 0006 1A60     		str	r2, [r3]
  45:Generated_Source\PSoC4/bootloadable.c **** 
  46:Generated_Source\PSoC4/bootloadable.c ****     CySoftwareReset();
  40              		.loc 1 46 0
  41 0008 FFF7FEFF 		bl	CySoftwareReset
  42              	.LVL0:
  47:Generated_Source\PSoC4/bootloadable.c **** }
  43              		.loc 1 47 0
  44              		@ sp needed
  45 000c 10BD     		pop	{r4, pc}
  46              	.L3:
  47 000e C046     		.align	2
  48              	.L2:
  49 0010 00000000 		.word	cyBtldrRunType
  50              		.cfi_endproc
  51              	.LFE0:
  52              		.size	bootloadable_Load, .-bootloadable_Load
  53              		.section	.text.bootloadable_SetFlashByte,"ax",%progbits
  54              		.align	2
  55              		.global	bootloadable_SetFlashByte
  56              		.code	16
  57              		.thumb_func
  58              		.type	bootloadable_SetFlashByte, %function
  59              	bootloadable_SetFlashByte:
  60              	.LFB1:
  48:Generated_Source\PSoC4/bootloadable.c **** 
  49:Generated_Source\PSoC4/bootloadable.c **** #if (CYDEV_PROJ_TYPE == CYDEV_PROJ_TYPE_LOADABLEANDBOOTLOADER)
  50:Generated_Source\PSoC4/bootloadable.c **** /*******************************************************************************
  51:Generated_Source\PSoC4/bootloadable.c **** * Function Name: bootloadable_GetActiveApplication
  52:Generated_Source\PSoC4/bootloadable.c **** ****************************************************************************//**
  53:Generated_Source\PSoC4/bootloadable.c **** *
  54:Generated_Source\PSoC4/bootloadable.c **** * \brief
ARM GAS  C:\Users\Usuario\AppData\Local\Temp\ccYKd0IS.s 			page 3


  55:Generated_Source\PSoC4/bootloadable.c **** *   Gets the application which will be loaded after a next reset event.
  56:Generated_Source\PSoC4/bootloadable.c **** *   NOTE Intended for the combination project type ONLY!
  57:Generated_Source\PSoC4/bootloadable.c **** *
  58:Generated_Source\PSoC4/bootloadable.c **** * \return 
  59:Generated_Source\PSoC4/bootloadable.c **** *  A number of the current active application set in the metadata section.
  60:Generated_Source\PSoC4/bootloadable.c **** *  \n  0 - app#0 is set as active.
  61:Generated_Source\PSoC4/bootloadable.c **** *  \n  1 - app#1 is set as active.
  62:Generated_Source\PSoC4/bootloadable.c **** *
  63:Generated_Source\PSoC4/bootloadable.c **** * \note If neither of the applications is set active, then the API returns 0x02.
  64:Generated_Source\PSoC4/bootloadable.c **** *
  65:Generated_Source\PSoC4/bootloadable.c **** *******************************************************************************/
  66:Generated_Source\PSoC4/bootloadable.c **** uint8 bootloadable_GetActiveApplication(void) CYSMALL \
  67:Generated_Source\PSoC4/bootloadable.c ****                           
  68:Generated_Source\PSoC4/bootloadable.c **** {   
  69:Generated_Source\PSoC4/bootloadable.c ****     uint8 result = bootloadable_MD_BTLDB_ACTIVE_NONE;
  70:Generated_Source\PSoC4/bootloadable.c ****     
  71:Generated_Source\PSoC4/bootloadable.c ****     if (0u != bootloadable_GET_CODE_DATA( \
  72:Generated_Source\PSoC4/bootloadable.c ****               bootloadable_MD_BTLDB_ACTIVE_OFFSET(bootloadable_MD_BTLDB_ACTIVE_0))) 
  73:Generated_Source\PSoC4/bootloadable.c ****     {
  74:Generated_Source\PSoC4/bootloadable.c ****         result = bootloadable_MD_BTLDB_ACTIVE_0;
  75:Generated_Source\PSoC4/bootloadable.c ****     }
  76:Generated_Source\PSoC4/bootloadable.c ****     else if (0u != bootloadable_GET_CODE_DATA( \
  77:Generated_Source\PSoC4/bootloadable.c ****                    bootloadable_MD_BTLDB_ACTIVE_OFFSET(bootloadable_MD_BTLDB_ACTIVE_1)))
  78:Generated_Source\PSoC4/bootloadable.c ****     {
  79:Generated_Source\PSoC4/bootloadable.c ****         result = bootloadable_MD_BTLDB_ACTIVE_1;    
  80:Generated_Source\PSoC4/bootloadable.c ****     }
  81:Generated_Source\PSoC4/bootloadable.c ****     else
  82:Generated_Source\PSoC4/bootloadable.c ****     {
  83:Generated_Source\PSoC4/bootloadable.c ****         /*Do nothing, result is none*/
  84:Generated_Source\PSoC4/bootloadable.c ****     }
  85:Generated_Source\PSoC4/bootloadable.c ****     
  86:Generated_Source\PSoC4/bootloadable.c ****     return (result);
  87:Generated_Source\PSoC4/bootloadable.c **** }
  88:Generated_Source\PSoC4/bootloadable.c **** 
  89:Generated_Source\PSoC4/bootloadable.c **** /*******************************************************************************
  90:Generated_Source\PSoC4/bootloadable.c **** * Function Name: bootloadable_SetActiveApplication
  91:Generated_Source\PSoC4/bootloadable.c **** ****************************************************************************//**
  92:Generated_Source\PSoC4/bootloadable.c **** *
  93:Generated_Source\PSoC4/bootloadable.c **** * \brief 
  94:Generated_Source\PSoC4/bootloadable.c **** *   Sets the application which will be loaded after a next reset event.          
  95:Generated_Source\PSoC4/bootloadable.c **** *   
  96:Generated_Source\PSoC4/bootloadable.c **** * \details
  97:Generated_Source\PSoC4/bootloadable.c **** * Theory: 
  98:Generated_Source\PSoC4/bootloadable.c **** *   This API sets in the Flash (metadata section) the given active application 
  99:Generated_Source\PSoC4/bootloadable.c **** *   number.
 100:Generated_Source\PSoC4/bootloadable.c **** *          
 101:Generated_Source\PSoC4/bootloadable.c **** *   NOTE The active application number is not set directly, but the boolean 
 102:Generated_Source\PSoC4/bootloadable.c **** *   mark instead means that the application is active or not for the relative 
 103:Generated_Source\PSoC4/bootloadable.c **** *   metadata. Both metadata sections are updated. For example, if the second 
 104:Generated_Source\PSoC4/bootloadable.c **** *   application is to be set active, then in the metadata section for the first 
 105:Generated_Source\PSoC4/bootloadable.c **** *   application there will be a "0" written, which means that it is not active, and 
 106:Generated_Source\PSoC4/bootloadable.c **** *   for the second metadata section there will be a "1" written, which means that it is 
 107:Generated_Source\PSoC4/bootloadable.c **** *   active. 
 108:Generated_Source\PSoC4/bootloadable.c **** *
 109:Generated_Source\PSoC4/bootloadable.c **** *   NOTE Intended for the combination project type ONLY!
 110:Generated_Source\PSoC4/bootloadable.c **** *
 111:Generated_Source\PSoC4/bootloadable.c **** * \param appId  
ARM GAS  C:\Users\Usuario\AppData\Local\Temp\ccYKd0IS.s 			page 4


 112:Generated_Source\PSoC4/bootloadable.c **** *   The active application number to be written to flash (metadata section) 
 113:Generated_Source\PSoC4/bootloadable.c **** *   NOTE Possible values are:
 114:Generated_Source\PSoC4/bootloadable.c **** *   0 - for the first application
 115:Generated_Source\PSoC4/bootloadable.c **** *   1 - for the second application.
 116:Generated_Source\PSoC4/bootloadable.c **** *   Any other number is considered invalid. 
 117:Generated_Source\PSoC4/bootloadable.c **** *
 118:Generated_Source\PSoC4/bootloadable.c **** * \return 
 119:Generated_Source\PSoC4/bootloadable.c **** *   A status of writing to flash operation.
 120:Generated_Source\PSoC4/bootloadable.c **** *   \n CYRET_SUCCESS - Returned if appId was successfully changed. 
 121:Generated_Source\PSoC4/bootloadable.c **** *   \n CYRET_BAD_PARAM - Returned if the parameter appID passed to the function has the 
 122:Generated_Source\PSoC4/bootloadable.c **** *                       same value as the active application ID. 
 123:Generated_Source\PSoC4/bootloadable.c **** *   \note - The other non-zero value is considered as a failure during writing to flash.  
 124:Generated_Source\PSoC4/bootloadable.c **** *
 125:Generated_Source\PSoC4/bootloadable.c **** *   \note - This API does not update Bootloader_activeApp variable.
 126:Generated_Source\PSoC4/bootloadable.c **** *
 127:Generated_Source\PSoC4/bootloadable.c **** *******************************************************************************/
 128:Generated_Source\PSoC4/bootloadable.c **** cystatus bootloadable_SetActiveApplication(uint8 appId) CYSMALL \
 129:Generated_Source\PSoC4/bootloadable.c ****                 
 130:Generated_Source\PSoC4/bootloadable.c **** {
 131:Generated_Source\PSoC4/bootloadable.c ****     cystatus result = CYRET_SUCCESS;
 132:Generated_Source\PSoC4/bootloadable.c **** 
 133:Generated_Source\PSoC4/bootloadable.c ****     uint8 CYDATA idx;
 134:Generated_Source\PSoC4/bootloadable.c ****     
 135:Generated_Source\PSoC4/bootloadable.c ****     /* If invalid application number */
 136:Generated_Source\PSoC4/bootloadable.c ****     if (appId > bootloadable_MD_BTLDB_ACTIVE_1)
 137:Generated_Source\PSoC4/bootloadable.c ****     {
 138:Generated_Source\PSoC4/bootloadable.c ****         result = CYRET_BAD_PARAM;
 139:Generated_Source\PSoC4/bootloadable.c ****     }
 140:Generated_Source\PSoC4/bootloadable.c ****     else
 141:Generated_Source\PSoC4/bootloadable.c ****     {
 142:Generated_Source\PSoC4/bootloadable.c ****         /* If appID has same value as active application ID */
 143:Generated_Source\PSoC4/bootloadable.c ****         if (1u == bootloadable_GET_CODE_DATA(bootloadable_MD_BTLDB_ACTIVE_OFFSET(appId)))
 144:Generated_Source\PSoC4/bootloadable.c ****         {
 145:Generated_Source\PSoC4/bootloadable.c ****             result = CYRET_BAD_PARAM;
 146:Generated_Source\PSoC4/bootloadable.c ****         }
 147:Generated_Source\PSoC4/bootloadable.c ****         else
 148:Generated_Source\PSoC4/bootloadable.c ****         {
 149:Generated_Source\PSoC4/bootloadable.c ****             /* Updating metadata section */
 150:Generated_Source\PSoC4/bootloadable.c ****             for(idx = 0u; idx < bootloadable_MAX_NUM_OF_BTLDB; idx++)
 151:Generated_Source\PSoC4/bootloadable.c ****             {
 152:Generated_Source\PSoC4/bootloadable.c ****                 result |= bootloadable_WriteFlashByte((uint32) bootloadable_MD_BTLDB_ACTIVE_OFFSET(
 153:Generated_Source\PSoC4/bootloadable.c ****                                                                                             (uint8)
 154:Generated_Source\PSoC4/bootloadable.c ****             }
 155:Generated_Source\PSoC4/bootloadable.c ****         }
 156:Generated_Source\PSoC4/bootloadable.c ****     }
 157:Generated_Source\PSoC4/bootloadable.c ****     
 158:Generated_Source\PSoC4/bootloadable.c ****     return (result);
 159:Generated_Source\PSoC4/bootloadable.c **** }
 160:Generated_Source\PSoC4/bootloadable.c **** 
 161:Generated_Source\PSoC4/bootloadable.c **** /*******************************************************************************
 162:Generated_Source\PSoC4/bootloadable.c **** * Function Name: bootloadable_WriteFlashByte
 163:Generated_Source\PSoC4/bootloadable.c **** ****************************************************************************//**
 164:Generated_Source\PSoC4/bootloadable.c **** *
 165:Generated_Source\PSoC4/bootloadable.c **** * \brief 
 166:Generated_Source\PSoC4/bootloadable.c **** *   This API writes to flash the specified data.
 167:Generated_Source\PSoC4/bootloadable.c **** *
 168:Generated_Source\PSoC4/bootloadable.c **** * \param address 
ARM GAS  C:\Users\Usuario\AppData\Local\Temp\ccYKd0IS.s 			page 5


 169:Generated_Source\PSoC4/bootloadable.c **** *   The address in flash.
 170:Generated_Source\PSoC4/bootloadable.c **** *
 171:Generated_Source\PSoC4/bootloadable.c **** * \param inputValue 
 172:Generated_Source\PSoC4/bootloadable.c **** *   One-byte data.
 173:Generated_Source\PSoC4/bootloadable.c **** *
 174:Generated_Source\PSoC4/bootloadable.c **** * \return 
 175:Generated_Source\PSoC4/bootloadable.c **** *   A status of the writing to flash procedure.
 176:Generated_Source\PSoC4/bootloadable.c **** *
 177:Generated_Source\PSoC4/bootloadable.c **** *******************************************************************************/
 178:Generated_Source\PSoC4/bootloadable.c **** static cystatus bootloadable_WriteFlashByte(const uint32 address, const uint8 inputValue) CYLARGE \
 179:Generated_Source\PSoC4/bootloadable.c ****                                
 180:Generated_Source\PSoC4/bootloadable.c **** {
 181:Generated_Source\PSoC4/bootloadable.c ****     cystatus result = CYRET_SUCCESS;
 182:Generated_Source\PSoC4/bootloadable.c ****     uint32 flsAddr = address - CYDEV_FLASH_BASE;
 183:Generated_Source\PSoC4/bootloadable.c ****     uint8  rowData[CYDEV_FLS_ROW_SIZE];
 184:Generated_Source\PSoC4/bootloadable.c **** 
 185:Generated_Source\PSoC4/bootloadable.c ****     #if !(CY_PSOC4)
 186:Generated_Source\PSoC4/bootloadable.c ****         uint8 arrayId = ( uint8 )(flsAddr / CYDEV_FLS_SECTOR_SIZE);
 187:Generated_Source\PSoC4/bootloadable.c ****     #endif  /* !(CY_PSOC4) */
 188:Generated_Source\PSoC4/bootloadable.c **** 
 189:Generated_Source\PSoC4/bootloadable.c ****     #if (CY_PSOC4)
 190:Generated_Source\PSoC4/bootloadable.c ****         uint16 rowNum = ( uint16 )(flsAddr / CYDEV_FLS_ROW_SIZE);
 191:Generated_Source\PSoC4/bootloadable.c ****     #else
 192:Generated_Source\PSoC4/bootloadable.c ****         uint16 rowNum = ( uint16 )((flsAddr % CYDEV_FLS_SECTOR_SIZE) / CYDEV_FLS_ROW_SIZE);
 193:Generated_Source\PSoC4/bootloadable.c ****     #endif  /* (CY_PSOC4) */
 194:Generated_Source\PSoC4/bootloadable.c **** 
 195:Generated_Source\PSoC4/bootloadable.c ****     uint32 baseAddr = address - (address % CYDEV_FLS_ROW_SIZE);
 196:Generated_Source\PSoC4/bootloadable.c ****     uint16 idx;
 197:Generated_Source\PSoC4/bootloadable.c **** 
 198:Generated_Source\PSoC4/bootloadable.c ****     for(idx = 0u; idx < CYDEV_FLS_ROW_SIZE; idx++)
 199:Generated_Source\PSoC4/bootloadable.c ****     {
 200:Generated_Source\PSoC4/bootloadable.c ****         rowData[idx] = (uint8)bootloadable_GET_CODE_DATA(baseAddr + idx);
 201:Generated_Source\PSoC4/bootloadable.c ****     }
 202:Generated_Source\PSoC4/bootloadable.c **** 
 203:Generated_Source\PSoC4/bootloadable.c ****     rowData[address % CYDEV_FLS_ROW_SIZE] = inputValue;
 204:Generated_Source\PSoC4/bootloadable.c **** 
 205:Generated_Source\PSoC4/bootloadable.c ****     #if(CY_PSOC4)
 206:Generated_Source\PSoC4/bootloadable.c ****         result = CySysFlashWriteRow((uint32) rowNum, rowData);
 207:Generated_Source\PSoC4/bootloadable.c ****     #else
 208:Generated_Source\PSoC4/bootloadable.c ****         result = CyWriteRowData(arrayId, rowNum, rowData);
 209:Generated_Source\PSoC4/bootloadable.c ****     #endif  /* (CY_PSOC4) */
 210:Generated_Source\PSoC4/bootloadable.c **** 
 211:Generated_Source\PSoC4/bootloadable.c ****     #if(CY_PSOC5)
 212:Generated_Source\PSoC4/bootloadable.c ****         /***************************************************************************
 213:Generated_Source\PSoC4/bootloadable.c ****         * When writing to flash, data in the instruction cache can become stale.
 214:Generated_Source\PSoC4/bootloadable.c ****         * Therefore, the cache data does not correlate to the data just written to
 215:Generated_Source\PSoC4/bootloadable.c ****         * flash. A call to CyFlushCache() is required to invalidate the data in the
 216:Generated_Source\PSoC4/bootloadable.c ****         * cache and force fresh information to be loaded from flash.
 217:Generated_Source\PSoC4/bootloadable.c ****         ***************************************************************************/
 218:Generated_Source\PSoC4/bootloadable.c ****         CyFlushCache();
 219:Generated_Source\PSoC4/bootloadable.c ****     #endif /* (CY_PSOC5) */
 220:Generated_Source\PSoC4/bootloadable.c ****     return (result);
 221:Generated_Source\PSoC4/bootloadable.c **** }
 222:Generated_Source\PSoC4/bootloadable.c **** #endif /*(CYDEV_PROJ_TYPE == CYDEV_PROJ_TYPE_LOADABLEANDBOOTLOADER)*/
 223:Generated_Source\PSoC4/bootloadable.c **** /** @} functions_group */
 224:Generated_Source\PSoC4/bootloadable.c **** 
 225:Generated_Source\PSoC4/bootloadable.c **** /*******************************************************************************
ARM GAS  C:\Users\Usuario\AppData\Local\Temp\ccYKd0IS.s 			page 6


 226:Generated_Source\PSoC4/bootloadable.c **** * The following code is OBSOLETE and must not be used.
 227:Generated_Source\PSoC4/bootloadable.c **** *******************************************************************************/
 228:Generated_Source\PSoC4/bootloadable.c **** void bootloadable_SetFlashByte(uint32 address, uint8 runType) 
 229:Generated_Source\PSoC4/bootloadable.c **** {
  61              		.loc 1 229 0
  62              		.cfi_startproc
  63              		@ args = 0, pretend = 0, frame = 128
  64              		@ frame_needed = 0, uses_anonymous_args = 0
  65              	.LVL1:
  66 0000 70B5     		push	{r4, r5, r6, lr}
  67              		.cfi_def_cfa_offset 16
  68              		.cfi_offset 4, -16
  69              		.cfi_offset 5, -12
  70              		.cfi_offset 6, -8
  71              		.cfi_offset 14, -4
  72 0002 A0B0     		sub	sp, sp, #128
  73              		.cfi_def_cfa_offset 144
  74 0004 0500     		movs	r5, r0
  75              	.LVL2:
 230:Generated_Source\PSoC4/bootloadable.c ****     uint32 flsAddr = address - CYDEV_FLASH_BASE;
 231:Generated_Source\PSoC4/bootloadable.c ****     uint8  rowData[CYDEV_FLS_ROW_SIZE];
 232:Generated_Source\PSoC4/bootloadable.c **** 
 233:Generated_Source\PSoC4/bootloadable.c ****     #if !(CY_PSOC4)
 234:Generated_Source\PSoC4/bootloadable.c ****         uint8 arrayId = ( uint8 )(flsAddr / CYDEV_FLS_SECTOR_SIZE);
 235:Generated_Source\PSoC4/bootloadable.c ****     #endif  /* !(CY_PSOC4) */
 236:Generated_Source\PSoC4/bootloadable.c **** 
 237:Generated_Source\PSoC4/bootloadable.c ****     #if (CY_PSOC4)
 238:Generated_Source\PSoC4/bootloadable.c ****         uint16 rowNum = ( uint16 )(flsAddr / CYDEV_FLS_ROW_SIZE);
  76              		.loc 1 238 0
  77 0006 C009     		lsrs	r0, r0, #7
  78              	.LVL3:
 239:Generated_Source\PSoC4/bootloadable.c ****     #else
 240:Generated_Source\PSoC4/bootloadable.c ****         uint16 rowNum = ( uint16 )((flsAddr % CYDEV_FLS_SECTOR_SIZE) / CYDEV_FLS_ROW_SIZE);
 241:Generated_Source\PSoC4/bootloadable.c ****     #endif  /* (CY_PSOC4) */
 242:Generated_Source\PSoC4/bootloadable.c **** 
 243:Generated_Source\PSoC4/bootloadable.c ****     uint32 baseAddr = address - (address % CYDEV_FLS_ROW_SIZE);
  79              		.loc 1 243 0
  80 0008 7F23     		movs	r3, #127
  81 000a 2C00     		movs	r4, r5
  82 000c 9C43     		bics	r4, r3
  83              	.LVL4:
 244:Generated_Source\PSoC4/bootloadable.c ****     uint16 idx;
 245:Generated_Source\PSoC4/bootloadable.c **** 
 246:Generated_Source\PSoC4/bootloadable.c **** 
 247:Generated_Source\PSoC4/bootloadable.c ****     for (idx = 0u; idx < CYDEV_FLS_ROW_SIZE; idx++)
  84              		.loc 1 247 0
  85 000e 0023     		movs	r3, #0
  86 0010 04E0     		b	.L5
  87              	.LVL5:
  88              	.L6:
 248:Generated_Source\PSoC4/bootloadable.c ****     {
 249:Generated_Source\PSoC4/bootloadable.c ****         rowData[idx] = bootloadable_GET_CODE_DATA(baseAddr + idx);
  89              		.loc 1 249 0 discriminator 3
  90 0012 1A5D     		ldrb	r2, [r3, r4]
  91 0014 6E46     		mov	r6, sp
  92 0016 F254     		strb	r2, [r6, r3]
 247:Generated_Source\PSoC4/bootloadable.c ****     {
ARM GAS  C:\Users\Usuario\AppData\Local\Temp\ccYKd0IS.s 			page 7


  93              		.loc 1 247 0 discriminator 3
  94 0018 0133     		adds	r3, r3, #1
  95              	.LVL6:
  96 001a 9BB2     		uxth	r3, r3
  97              	.LVL7:
  98              	.L5:
 247:Generated_Source\PSoC4/bootloadable.c ****     {
  99              		.loc 1 247 0 is_stmt 0 discriminator 1
 100 001c 7F2B     		cmp	r3, #127
 101 001e F8D9     		bls	.L6
 250:Generated_Source\PSoC4/bootloadable.c ****     }
 251:Generated_Source\PSoC4/bootloadable.c ****     rowData[address % CYDEV_FLS_ROW_SIZE] = runType;
 102              		.loc 1 251 0 is_stmt 1
 103 0020 7F23     		movs	r3, #127
 104              	.LVL8:
 105 0022 1D40     		ands	r5, r3
 106              	.LVL9:
 107 0024 6B46     		mov	r3, sp
 108 0026 5955     		strb	r1, [r3, r5]
 252:Generated_Source\PSoC4/bootloadable.c **** 
 253:Generated_Source\PSoC4/bootloadable.c ****     #if(CY_PSOC4)
 254:Generated_Source\PSoC4/bootloadable.c ****         (void) CySysFlashWriteRow((uint32) rowNum, rowData);
 109              		.loc 1 254 0
 110 0028 0004     		lsls	r0, r0, #16
 111              	.LVL10:
 112 002a 000C     		lsrs	r0, r0, #16
 113 002c 6946     		mov	r1, sp
 114              	.LVL11:
 115 002e FFF7FEFF 		bl	CySysFlashWriteRow
 116              	.LVL12:
 255:Generated_Source\PSoC4/bootloadable.c ****     #else
 256:Generated_Source\PSoC4/bootloadable.c ****         (void) CyWriteRowData(arrayId, rowNum, rowData);
 257:Generated_Source\PSoC4/bootloadable.c ****     #endif  /* (CY_PSOC4) */
 258:Generated_Source\PSoC4/bootloadable.c **** 
 259:Generated_Source\PSoC4/bootloadable.c ****     #if(CY_PSOC5)
 260:Generated_Source\PSoC4/bootloadable.c ****         /***************************************************************************
 261:Generated_Source\PSoC4/bootloadable.c ****         * When writing to flash, data in the instruction cache can become obsolete.
 262:Generated_Source\PSoC4/bootloadable.c ****         * Therefore, the cache data does not correlate to the data just written to
 263:Generated_Source\PSoC4/bootloadable.c ****         * flash. A call to CyFlushCache() is required to invalidate the data in the
 264:Generated_Source\PSoC4/bootloadable.c ****         * cache and force fresh information to be loaded from flash.
 265:Generated_Source\PSoC4/bootloadable.c ****         ***************************************************************************/
 266:Generated_Source\PSoC4/bootloadable.c ****         CyFlushCache();
 267:Generated_Source\PSoC4/bootloadable.c ****     #endif /* (CY_PSOC5) */
 268:Generated_Source\PSoC4/bootloadable.c **** }
 117              		.loc 1 268 0
 118 0032 20B0     		add	sp, sp, #128
 119              		@ sp needed
 120              	.LVL13:
 121 0034 70BD     		pop	{r4, r5, r6, pc}
 122              		.cfi_endproc
 123              	.LFE1:
 124              		.size	bootloadable_SetFlashByte, .-bootloadable_SetFlashByte
 125 0036 C046     		.text
 126              	.Letext0:
 127              		.file 2 "Generated_Source\\PSoC4\\cytypes.h"
 128              		.file 3 "Generated_Source\\PSoC4\\CyLib.h"
 129              		.file 4 "Generated_Source\\PSoC4\\CyFlash.h"
ARM GAS  C:\Users\Usuario\AppData\Local\Temp\ccYKd0IS.s 			page 8


 130              		.file 5 "Generated_Source\\PSoC4\\bootloadable.h"
 131              		.section	.debug_info,"",%progbits
 132              	.Ldebug_info0:
 133 0000 A0010000 		.4byte	0x1a0
 134 0004 0400     		.2byte	0x4
 135 0006 00000000 		.4byte	.Ldebug_abbrev0
 136 000a 04       		.byte	0x4
 137 000b 01       		.uleb128 0x1
 138 000c 44010000 		.4byte	.LASF27
 139 0010 0C       		.byte	0xc
 140 0011 F7010000 		.4byte	.LASF28
 141 0015 00000000 		.4byte	.LASF29
 142 0019 00000000 		.4byte	.Ldebug_ranges0+0
 143 001d 00000000 		.4byte	0
 144 0021 00000000 		.4byte	.Ldebug_line0
 145 0025 02       		.uleb128 0x2
 146 0026 01       		.byte	0x1
 147 0027 06       		.byte	0x6
 148 0028 4C020000 		.4byte	.LASF0
 149 002c 02       		.uleb128 0x2
 150 002d 01       		.byte	0x1
 151 002e 08       		.byte	0x8
 152 002f 86000000 		.4byte	.LASF1
 153 0033 02       		.uleb128 0x2
 154 0034 02       		.byte	0x2
 155 0035 05       		.byte	0x5
 156 0036 1D020000 		.4byte	.LASF2
 157 003a 02       		.uleb128 0x2
 158 003b 02       		.byte	0x2
 159 003c 07       		.byte	0x7
 160 003d 6D000000 		.4byte	.LASF3
 161 0041 02       		.uleb128 0x2
 162 0042 04       		.byte	0x4
 163 0043 05       		.byte	0x5
 164 0044 37020000 		.4byte	.LASF4
 165 0048 02       		.uleb128 0x2
 166 0049 04       		.byte	0x4
 167 004a 07       		.byte	0x7
 168 004b 9C000000 		.4byte	.LASF5
 169 004f 02       		.uleb128 0x2
 170 0050 08       		.byte	0x8
 171 0051 05       		.byte	0x5
 172 0052 E4010000 		.4byte	.LASF6
 173 0056 02       		.uleb128 0x2
 174 0057 08       		.byte	0x8
 175 0058 07       		.byte	0x7
 176 0059 13010000 		.4byte	.LASF7
 177 005d 03       		.uleb128 0x3
 178 005e 04       		.byte	0x4
 179 005f 05       		.byte	0x5
 180 0060 696E7400 		.ascii	"int\000"
 181 0064 02       		.uleb128 0x2
 182 0065 04       		.byte	0x4
 183 0066 07       		.byte	0x7
 184 0067 FE000000 		.4byte	.LASF8
 185 006b 04       		.uleb128 0x4
 186 006c AE000000 		.4byte	.LASF9
ARM GAS  C:\Users\Usuario\AppData\Local\Temp\ccYKd0IS.s 			page 9


 187 0070 02       		.byte	0x2
 188 0071 FC01     		.2byte	0x1fc
 189 0073 2C000000 		.4byte	0x2c
 190 0077 04       		.uleb128 0x4
 191 0078 F0000000 		.4byte	.LASF10
 192 007c 02       		.byte	0x2
 193 007d FD01     		.2byte	0x1fd
 194 007f 3A000000 		.4byte	0x3a
 195 0083 04       		.uleb128 0x4
 196 0084 F7000000 		.4byte	.LASF11
 197 0088 02       		.byte	0x2
 198 0089 FE01     		.2byte	0x1fe
 199 008b 48000000 		.4byte	0x48
 200 008f 02       		.uleb128 0x2
 201 0090 04       		.byte	0x4
 202 0091 04       		.byte	0x4
 203 0092 80000000 		.4byte	.LASF12
 204 0096 02       		.uleb128 0x2
 205 0097 08       		.byte	0x8
 206 0098 04       		.byte	0x4
 207 0099 B4000000 		.4byte	.LASF13
 208 009d 02       		.uleb128 0x2
 209 009e 01       		.byte	0x1
 210 009f 08       		.byte	0x8
 211 00a0 F2010000 		.4byte	.LASF14
 212 00a4 05       		.uleb128 0x5
 213 00a5 83000000 		.4byte	0x83
 214 00a9 02       		.uleb128 0x2
 215 00aa 08       		.byte	0x8
 216 00ab 04       		.byte	0x4
 217 00ac 40020000 		.4byte	.LASF15
 218 00b0 02       		.uleb128 0x2
 219 00b1 04       		.byte	0x4
 220 00b2 07       		.byte	0x7
 221 00b3 DB010000 		.4byte	.LASF16
 222 00b7 06       		.uleb128 0x6
 223 00b8 2A010000 		.4byte	.LASF17
 224 00bc 01       		.byte	0x1
 225 00bd 29       		.byte	0x29
 226 00be 00000000 		.4byte	.LFB0
 227 00c2 14000000 		.4byte	.LFE0-.LFB0
 228 00c6 01       		.uleb128 0x1
 229 00c7 9C       		.byte	0x9c
 230 00c8 D6000000 		.4byte	0xd6
 231 00cc 07       		.uleb128 0x7
 232 00cd 0C000000 		.4byte	.LVL0
 233 00d1 8D010000 		.4byte	0x18d
 234 00d5 00       		.byte	0
 235 00d6 06       		.uleb128 0x6
 236 00d7 BB000000 		.4byte	.LASF18
 237 00db 01       		.byte	0x1
 238 00dc E4       		.byte	0xe4
 239 00dd 00000000 		.4byte	.LFB1
 240 00e1 36000000 		.4byte	.LFE1-.LFB1
 241 00e5 01       		.uleb128 0x1
 242 00e6 9C       		.byte	0x9c
 243 00e7 72010000 		.4byte	0x172
ARM GAS  C:\Users\Usuario\AppData\Local\Temp\ccYKd0IS.s 			page 10


 244 00eb 08       		.uleb128 0x8
 245 00ec 0B010000 		.4byte	.LASF19
 246 00f0 01       		.byte	0x1
 247 00f1 E4       		.byte	0xe4
 248 00f2 83000000 		.4byte	0x83
 249 00f6 00000000 		.4byte	.LLST0
 250 00fa 08       		.uleb128 0x8
 251 00fb 3C010000 		.4byte	.LASF20
 252 00ff 01       		.byte	0x1
 253 0100 E4       		.byte	0xe4
 254 0101 6B000000 		.4byte	0x6b
 255 0105 2C000000 		.4byte	.LLST1
 256 0109 09       		.uleb128 0x9
 257 010a E8000000 		.4byte	.LASF21
 258 010e 01       		.byte	0x1
 259 010f E6       		.byte	0xe6
 260 0110 83000000 		.4byte	0x83
 261 0114 5C000000 		.4byte	.LLST2
 262 0118 0A       		.uleb128 0xa
 263 0119 94000000 		.4byte	.LASF22
 264 011d 01       		.byte	0x1
 265 011e E7       		.byte	0xe7
 266 011f 72010000 		.4byte	0x172
 267 0123 03       		.uleb128 0x3
 268 0124 91       		.byte	0x91
 269 0125 F07E     		.sleb128 -144
 270 0127 09       		.uleb128 0x9
 271 0128 66000000 		.4byte	.LASF23
 272 012c 01       		.byte	0x1
 273 012d EE       		.byte	0xee
 274 012e 77000000 		.4byte	0x77
 275 0132 88000000 		.4byte	.LLST3
 276 0136 09       		.uleb128 0x9
 277 0137 D2010000 		.4byte	.LASF24
 278 013b 01       		.byte	0x1
 279 013c F3       		.byte	0xf3
 280 013d 83000000 		.4byte	0x83
 281 0141 AB000000 		.4byte	.LLST4
 282 0145 0B       		.uleb128 0xb
 283 0146 69647800 		.ascii	"idx\000"
 284 014a 01       		.byte	0x1
 285 014b F4       		.byte	0xf4
 286 014c 77000000 		.4byte	0x77
 287 0150 CF000000 		.4byte	.LLST5
 288 0154 0C       		.uleb128 0xc
 289 0155 32000000 		.4byte	.LVL12
 290 0159 98010000 		.4byte	0x198
 291 015d 0D       		.uleb128 0xd
 292 015e 01       		.uleb128 0x1
 293 015f 50       		.byte	0x50
 294 0160 09       		.uleb128 0x9
 295 0161 F3       		.byte	0xf3
 296 0162 01       		.uleb128 0x1
 297 0163 50       		.byte	0x50
 298 0164 37       		.byte	0x37
 299 0165 25       		.byte	0x25
 300 0166 40       		.byte	0x40
ARM GAS  C:\Users\Usuario\AppData\Local\Temp\ccYKd0IS.s 			page 11


 301 0167 24       		.byte	0x24
 302 0168 40       		.byte	0x40
 303 0169 25       		.byte	0x25
 304 016a 0D       		.uleb128 0xd
 305 016b 01       		.uleb128 0x1
 306 016c 51       		.byte	0x51
 307 016d 02       		.uleb128 0x2
 308 016e 7D       		.byte	0x7d
 309 016f 00       		.sleb128 0
 310 0170 00       		.byte	0
 311 0171 00       		.byte	0
 312 0172 0E       		.uleb128 0xe
 313 0173 6B000000 		.4byte	0x6b
 314 0177 82010000 		.4byte	0x182
 315 017b 0F       		.uleb128 0xf
 316 017c B0000000 		.4byte	0xb0
 317 0180 7F       		.byte	0x7f
 318 0181 00       		.byte	0
 319 0182 10       		.uleb128 0x10
 320 0183 58020000 		.4byte	.LASF30
 321 0187 05       		.byte	0x5
 322 0188 38       		.byte	0x38
 323 0189 A4000000 		.4byte	0xa4
 324 018d 11       		.uleb128 0x11
 325 018e 27020000 		.4byte	.LASF25
 326 0192 27020000 		.4byte	.LASF25
 327 0196 03       		.byte	0x3
 328 0197 F7       		.byte	0xf7
 329 0198 11       		.uleb128 0x11
 330 0199 D5000000 		.4byte	.LASF26
 331 019d D5000000 		.4byte	.LASF26
 332 01a1 04       		.byte	0x4
 333 01a2 4E       		.byte	0x4e
 334 01a3 00       		.byte	0
 335              		.section	.debug_abbrev,"",%progbits
 336              	.Ldebug_abbrev0:
 337 0000 01       		.uleb128 0x1
 338 0001 11       		.uleb128 0x11
 339 0002 01       		.byte	0x1
 340 0003 25       		.uleb128 0x25
 341 0004 0E       		.uleb128 0xe
 342 0005 13       		.uleb128 0x13
 343 0006 0B       		.uleb128 0xb
 344 0007 03       		.uleb128 0x3
 345 0008 0E       		.uleb128 0xe
 346 0009 1B       		.uleb128 0x1b
 347 000a 0E       		.uleb128 0xe
 348 000b 55       		.uleb128 0x55
 349 000c 17       		.uleb128 0x17
 350 000d 11       		.uleb128 0x11
 351 000e 01       		.uleb128 0x1
 352 000f 10       		.uleb128 0x10
 353 0010 17       		.uleb128 0x17
 354 0011 00       		.byte	0
 355 0012 00       		.byte	0
 356 0013 02       		.uleb128 0x2
 357 0014 24       		.uleb128 0x24
ARM GAS  C:\Users\Usuario\AppData\Local\Temp\ccYKd0IS.s 			page 12


 358 0015 00       		.byte	0
 359 0016 0B       		.uleb128 0xb
 360 0017 0B       		.uleb128 0xb
 361 0018 3E       		.uleb128 0x3e
 362 0019 0B       		.uleb128 0xb
 363 001a 03       		.uleb128 0x3
 364 001b 0E       		.uleb128 0xe
 365 001c 00       		.byte	0
 366 001d 00       		.byte	0
 367 001e 03       		.uleb128 0x3
 368 001f 24       		.uleb128 0x24
 369 0020 00       		.byte	0
 370 0021 0B       		.uleb128 0xb
 371 0022 0B       		.uleb128 0xb
 372 0023 3E       		.uleb128 0x3e
 373 0024 0B       		.uleb128 0xb
 374 0025 03       		.uleb128 0x3
 375 0026 08       		.uleb128 0x8
 376 0027 00       		.byte	0
 377 0028 00       		.byte	0
 378 0029 04       		.uleb128 0x4
 379 002a 16       		.uleb128 0x16
 380 002b 00       		.byte	0
 381 002c 03       		.uleb128 0x3
 382 002d 0E       		.uleb128 0xe
 383 002e 3A       		.uleb128 0x3a
 384 002f 0B       		.uleb128 0xb
 385 0030 3B       		.uleb128 0x3b
 386 0031 05       		.uleb128 0x5
 387 0032 49       		.uleb128 0x49
 388 0033 13       		.uleb128 0x13
 389 0034 00       		.byte	0
 390 0035 00       		.byte	0
 391 0036 05       		.uleb128 0x5
 392 0037 35       		.uleb128 0x35
 393 0038 00       		.byte	0
 394 0039 49       		.uleb128 0x49
 395 003a 13       		.uleb128 0x13
 396 003b 00       		.byte	0
 397 003c 00       		.byte	0
 398 003d 06       		.uleb128 0x6
 399 003e 2E       		.uleb128 0x2e
 400 003f 01       		.byte	0x1
 401 0040 3F       		.uleb128 0x3f
 402 0041 19       		.uleb128 0x19
 403 0042 03       		.uleb128 0x3
 404 0043 0E       		.uleb128 0xe
 405 0044 3A       		.uleb128 0x3a
 406 0045 0B       		.uleb128 0xb
 407 0046 3B       		.uleb128 0x3b
 408 0047 0B       		.uleb128 0xb
 409 0048 27       		.uleb128 0x27
 410 0049 19       		.uleb128 0x19
 411 004a 11       		.uleb128 0x11
 412 004b 01       		.uleb128 0x1
 413 004c 12       		.uleb128 0x12
 414 004d 06       		.uleb128 0x6
ARM GAS  C:\Users\Usuario\AppData\Local\Temp\ccYKd0IS.s 			page 13


 415 004e 40       		.uleb128 0x40
 416 004f 18       		.uleb128 0x18
 417 0050 9742     		.uleb128 0x2117
 418 0052 19       		.uleb128 0x19
 419 0053 01       		.uleb128 0x1
 420 0054 13       		.uleb128 0x13
 421 0055 00       		.byte	0
 422 0056 00       		.byte	0
 423 0057 07       		.uleb128 0x7
 424 0058 898201   		.uleb128 0x4109
 425 005b 00       		.byte	0
 426 005c 11       		.uleb128 0x11
 427 005d 01       		.uleb128 0x1
 428 005e 31       		.uleb128 0x31
 429 005f 13       		.uleb128 0x13
 430 0060 00       		.byte	0
 431 0061 00       		.byte	0
 432 0062 08       		.uleb128 0x8
 433 0063 05       		.uleb128 0x5
 434 0064 00       		.byte	0
 435 0065 03       		.uleb128 0x3
 436 0066 0E       		.uleb128 0xe
 437 0067 3A       		.uleb128 0x3a
 438 0068 0B       		.uleb128 0xb
 439 0069 3B       		.uleb128 0x3b
 440 006a 0B       		.uleb128 0xb
 441 006b 49       		.uleb128 0x49
 442 006c 13       		.uleb128 0x13
 443 006d 02       		.uleb128 0x2
 444 006e 17       		.uleb128 0x17
 445 006f 00       		.byte	0
 446 0070 00       		.byte	0
 447 0071 09       		.uleb128 0x9
 448 0072 34       		.uleb128 0x34
 449 0073 00       		.byte	0
 450 0074 03       		.uleb128 0x3
 451 0075 0E       		.uleb128 0xe
 452 0076 3A       		.uleb128 0x3a
 453 0077 0B       		.uleb128 0xb
 454 0078 3B       		.uleb128 0x3b
 455 0079 0B       		.uleb128 0xb
 456 007a 49       		.uleb128 0x49
 457 007b 13       		.uleb128 0x13
 458 007c 02       		.uleb128 0x2
 459 007d 17       		.uleb128 0x17
 460 007e 00       		.byte	0
 461 007f 00       		.byte	0
 462 0080 0A       		.uleb128 0xa
 463 0081 34       		.uleb128 0x34
 464 0082 00       		.byte	0
 465 0083 03       		.uleb128 0x3
 466 0084 0E       		.uleb128 0xe
 467 0085 3A       		.uleb128 0x3a
 468 0086 0B       		.uleb128 0xb
 469 0087 3B       		.uleb128 0x3b
 470 0088 0B       		.uleb128 0xb
 471 0089 49       		.uleb128 0x49
ARM GAS  C:\Users\Usuario\AppData\Local\Temp\ccYKd0IS.s 			page 14


 472 008a 13       		.uleb128 0x13
 473 008b 02       		.uleb128 0x2
 474 008c 18       		.uleb128 0x18
 475 008d 00       		.byte	0
 476 008e 00       		.byte	0
 477 008f 0B       		.uleb128 0xb
 478 0090 34       		.uleb128 0x34
 479 0091 00       		.byte	0
 480 0092 03       		.uleb128 0x3
 481 0093 08       		.uleb128 0x8
 482 0094 3A       		.uleb128 0x3a
 483 0095 0B       		.uleb128 0xb
 484 0096 3B       		.uleb128 0x3b
 485 0097 0B       		.uleb128 0xb
 486 0098 49       		.uleb128 0x49
 487 0099 13       		.uleb128 0x13
 488 009a 02       		.uleb128 0x2
 489 009b 17       		.uleb128 0x17
 490 009c 00       		.byte	0
 491 009d 00       		.byte	0
 492 009e 0C       		.uleb128 0xc
 493 009f 898201   		.uleb128 0x4109
 494 00a2 01       		.byte	0x1
 495 00a3 11       		.uleb128 0x11
 496 00a4 01       		.uleb128 0x1
 497 00a5 31       		.uleb128 0x31
 498 00a6 13       		.uleb128 0x13
 499 00a7 00       		.byte	0
 500 00a8 00       		.byte	0
 501 00a9 0D       		.uleb128 0xd
 502 00aa 8A8201   		.uleb128 0x410a
 503 00ad 00       		.byte	0
 504 00ae 02       		.uleb128 0x2
 505 00af 18       		.uleb128 0x18
 506 00b0 9142     		.uleb128 0x2111
 507 00b2 18       		.uleb128 0x18
 508 00b3 00       		.byte	0
 509 00b4 00       		.byte	0
 510 00b5 0E       		.uleb128 0xe
 511 00b6 01       		.uleb128 0x1
 512 00b7 01       		.byte	0x1
 513 00b8 49       		.uleb128 0x49
 514 00b9 13       		.uleb128 0x13
 515 00ba 01       		.uleb128 0x1
 516 00bb 13       		.uleb128 0x13
 517 00bc 00       		.byte	0
 518 00bd 00       		.byte	0
 519 00be 0F       		.uleb128 0xf
 520 00bf 21       		.uleb128 0x21
 521 00c0 00       		.byte	0
 522 00c1 49       		.uleb128 0x49
 523 00c2 13       		.uleb128 0x13
 524 00c3 2F       		.uleb128 0x2f
 525 00c4 0B       		.uleb128 0xb
 526 00c5 00       		.byte	0
 527 00c6 00       		.byte	0
 528 00c7 10       		.uleb128 0x10
ARM GAS  C:\Users\Usuario\AppData\Local\Temp\ccYKd0IS.s 			page 15


 529 00c8 34       		.uleb128 0x34
 530 00c9 00       		.byte	0
 531 00ca 03       		.uleb128 0x3
 532 00cb 0E       		.uleb128 0xe
 533 00cc 3A       		.uleb128 0x3a
 534 00cd 0B       		.uleb128 0xb
 535 00ce 3B       		.uleb128 0x3b
 536 00cf 0B       		.uleb128 0xb
 537 00d0 49       		.uleb128 0x49
 538 00d1 13       		.uleb128 0x13
 539 00d2 3F       		.uleb128 0x3f
 540 00d3 19       		.uleb128 0x19
 541 00d4 3C       		.uleb128 0x3c
 542 00d5 19       		.uleb128 0x19
 543 00d6 00       		.byte	0
 544 00d7 00       		.byte	0
 545 00d8 11       		.uleb128 0x11
 546 00d9 2E       		.uleb128 0x2e
 547 00da 00       		.byte	0
 548 00db 3F       		.uleb128 0x3f
 549 00dc 19       		.uleb128 0x19
 550 00dd 3C       		.uleb128 0x3c
 551 00de 19       		.uleb128 0x19
 552 00df 6E       		.uleb128 0x6e
 553 00e0 0E       		.uleb128 0xe
 554 00e1 03       		.uleb128 0x3
 555 00e2 0E       		.uleb128 0xe
 556 00e3 3A       		.uleb128 0x3a
 557 00e4 0B       		.uleb128 0xb
 558 00e5 3B       		.uleb128 0x3b
 559 00e6 0B       		.uleb128 0xb
 560 00e7 00       		.byte	0
 561 00e8 00       		.byte	0
 562 00e9 00       		.byte	0
 563              		.section	.debug_loc,"",%progbits
 564              	.Ldebug_loc0:
 565              	.LLST0:
 566 0000 00000000 		.4byte	.LVL1
 567 0004 08000000 		.4byte	.LVL3
 568 0008 0100     		.2byte	0x1
 569 000a 50       		.byte	0x50
 570 000b 08000000 		.4byte	.LVL3
 571 000f 24000000 		.4byte	.LVL9
 572 0013 0100     		.2byte	0x1
 573 0015 55       		.byte	0x55
 574 0016 24000000 		.4byte	.LVL9
 575 001a 36000000 		.4byte	.LFE1
 576 001e 0400     		.2byte	0x4
 577 0020 F3       		.byte	0xf3
 578 0021 01       		.uleb128 0x1
 579 0022 50       		.byte	0x50
 580 0023 9F       		.byte	0x9f
 581 0024 00000000 		.4byte	0
 582 0028 00000000 		.4byte	0
 583              	.LLST1:
 584 002c 00000000 		.4byte	.LVL1
 585 0030 2E000000 		.4byte	.LVL11
ARM GAS  C:\Users\Usuario\AppData\Local\Temp\ccYKd0IS.s 			page 16


 586 0034 0100     		.2byte	0x1
 587 0036 51       		.byte	0x51
 588 0037 2E000000 		.4byte	.LVL11
 589 003b 31000000 		.4byte	.LVL12-1
 590 003f 0500     		.2byte	0x5
 591 0041 71       		.byte	0x71
 592 0042 00       		.sleb128 0
 593 0043 75       		.byte	0x75
 594 0044 00       		.sleb128 0
 595 0045 22       		.byte	0x22
 596 0046 31000000 		.4byte	.LVL12-1
 597 004a 36000000 		.4byte	.LFE1
 598 004e 0400     		.2byte	0x4
 599 0050 F3       		.byte	0xf3
 600 0051 01       		.uleb128 0x1
 601 0052 51       		.byte	0x51
 602 0053 9F       		.byte	0x9f
 603 0054 00000000 		.4byte	0
 604 0058 00000000 		.4byte	0
 605              	.LLST2:
 606 005c 06000000 		.4byte	.LVL2
 607 0060 08000000 		.4byte	.LVL3
 608 0064 0100     		.2byte	0x1
 609 0066 50       		.byte	0x50
 610 0067 08000000 		.4byte	.LVL3
 611 006b 24000000 		.4byte	.LVL9
 612 006f 0100     		.2byte	0x1
 613 0071 55       		.byte	0x55
 614 0072 24000000 		.4byte	.LVL9
 615 0076 36000000 		.4byte	.LFE1
 616 007a 0400     		.2byte	0x4
 617 007c F3       		.byte	0xf3
 618 007d 01       		.uleb128 0x1
 619 007e 50       		.byte	0x50
 620 007f 9F       		.byte	0x9f
 621 0080 00000000 		.4byte	0
 622 0084 00000000 		.4byte	0
 623              	.LLST3:
 624 0088 08000000 		.4byte	.LVL3
 625 008c 2A000000 		.4byte	.LVL10
 626 0090 0100     		.2byte	0x1
 627 0092 50       		.byte	0x50
 628 0093 2A000000 		.4byte	.LVL10
 629 0097 36000000 		.4byte	.LFE1
 630 009b 0600     		.2byte	0x6
 631 009d F3       		.byte	0xf3
 632 009e 01       		.uleb128 0x1
 633 009f 50       		.byte	0x50
 634 00a0 37       		.byte	0x37
 635 00a1 25       		.byte	0x25
 636 00a2 9F       		.byte	0x9f
 637 00a3 00000000 		.4byte	0
 638 00a7 00000000 		.4byte	0
 639              	.LLST4:
 640 00ab 0E000000 		.4byte	.LVL4
 641 00af 34000000 		.4byte	.LVL13
 642 00b3 0100     		.2byte	0x1
ARM GAS  C:\Users\Usuario\AppData\Local\Temp\ccYKd0IS.s 			page 17


 643 00b5 54       		.byte	0x54
 644 00b6 34000000 		.4byte	.LVL13
 645 00ba 36000000 		.4byte	.LFE1
 646 00be 0700     		.2byte	0x7
 647 00c0 F3       		.byte	0xf3
 648 00c1 01       		.uleb128 0x1
 649 00c2 50       		.byte	0x50
 650 00c3 09       		.byte	0x9
 651 00c4 80       		.byte	0x80
 652 00c5 1A       		.byte	0x1a
 653 00c6 9F       		.byte	0x9f
 654 00c7 00000000 		.4byte	0
 655 00cb 00000000 		.4byte	0
 656              	.LLST5:
 657 00cf 0E000000 		.4byte	.LVL4
 658 00d3 12000000 		.4byte	.LVL5
 659 00d7 0200     		.2byte	0x2
 660 00d9 30       		.byte	0x30
 661 00da 9F       		.byte	0x9f
 662 00db 12000000 		.4byte	.LVL5
 663 00df 1A000000 		.4byte	.LVL6
 664 00e3 0100     		.2byte	0x1
 665 00e5 53       		.byte	0x53
 666 00e6 1C000000 		.4byte	.LVL7
 667 00ea 22000000 		.4byte	.LVL8
 668 00ee 0100     		.2byte	0x1
 669 00f0 53       		.byte	0x53
 670 00f1 00000000 		.4byte	0
 671 00f5 00000000 		.4byte	0
 672              		.section	.debug_aranges,"",%progbits
 673 0000 24000000 		.4byte	0x24
 674 0004 0200     		.2byte	0x2
 675 0006 00000000 		.4byte	.Ldebug_info0
 676 000a 04       		.byte	0x4
 677 000b 00       		.byte	0
 678 000c 0000     		.2byte	0
 679 000e 0000     		.2byte	0
 680 0010 00000000 		.4byte	.LFB0
 681 0014 14000000 		.4byte	.LFE0-.LFB0
 682 0018 00000000 		.4byte	.LFB1
 683 001c 36000000 		.4byte	.LFE1-.LFB1
 684 0020 00000000 		.4byte	0
 685 0024 00000000 		.4byte	0
 686              		.section	.debug_ranges,"",%progbits
 687              	.Ldebug_ranges0:
 688 0000 00000000 		.4byte	.LFB0
 689 0004 14000000 		.4byte	.LFE0
 690 0008 00000000 		.4byte	.LFB1
 691 000c 36000000 		.4byte	.LFE1
 692 0010 00000000 		.4byte	0
 693 0014 00000000 		.4byte	0
 694              		.section	.debug_line,"",%progbits
 695              	.Ldebug_line0:
 696 0000 B6000000 		.section	.debug_str,"MS",%progbits,1
 696      02007300 
 696      00000201 
 696      FB0E0D00 
ARM GAS  C:\Users\Usuario\AppData\Local\Temp\ccYKd0IS.s 			page 18


 696      01010101 
 697              	.LASF29:
 698 0000 443A5C44 		.ascii	"D:\\Documentos\\UD\\2023-3\\Proyecto de grado\\Ejem"
 698      6F63756D 
 698      656E746F 
 698      735C5544 
 698      5C323032 
 699 002e 706C6F73 		.ascii	"plos\\Kit 049-42XX\\Config Gral 049\\Config Gral 04"
 699      5C4B6974 
 699      20303439 
 699      2D343258 
 699      585C436F 
 700 005e 392E6379 		.ascii	"9.cydsn\000"
 700      64736E00 
 701              	.LASF23:
 702 0066 726F774E 		.ascii	"rowNum\000"
 702      756D00
 703              	.LASF3:
 704 006d 73686F72 		.ascii	"short unsigned int\000"
 704      7420756E 
 704      7369676E 
 704      65642069 
 704      6E7400
 705              	.LASF12:
 706 0080 666C6F61 		.ascii	"float\000"
 706      7400
 707              	.LASF1:
 708 0086 756E7369 		.ascii	"unsigned char\000"
 708      676E6564 
 708      20636861 
 708      7200
 709              	.LASF22:
 710 0094 726F7744 		.ascii	"rowData\000"
 710      61746100 
 711              	.LASF5:
 712 009c 6C6F6E67 		.ascii	"long unsigned int\000"
 712      20756E73 
 712      69676E65 
 712      6420696E 
 712      7400
 713              	.LASF9:
 714 00ae 75696E74 		.ascii	"uint8\000"
 714      3800
 715              	.LASF13:
 716 00b4 646F7562 		.ascii	"double\000"
 716      6C6500
 717              	.LASF18:
 718 00bb 626F6F74 		.ascii	"bootloadable_SetFlashByte\000"
 718      6C6F6164 
 718      61626C65 
 718      5F536574 
 718      466C6173 
 719              	.LASF26:
 720 00d5 43795379 		.ascii	"CySysFlashWriteRow\000"
 720      73466C61 
 720      73685772 
 720      69746552 
ARM GAS  C:\Users\Usuario\AppData\Local\Temp\ccYKd0IS.s 			page 19


 720      6F7700
 721              	.LASF21:
 722 00e8 666C7341 		.ascii	"flsAddr\000"
 722      64647200 
 723              	.LASF10:
 724 00f0 75696E74 		.ascii	"uint16\000"
 724      313600
 725              	.LASF11:
 726 00f7 75696E74 		.ascii	"uint32\000"
 726      333200
 727              	.LASF8:
 728 00fe 756E7369 		.ascii	"unsigned int\000"
 728      676E6564 
 728      20696E74 
 728      00
 729              	.LASF19:
 730 010b 61646472 		.ascii	"address\000"
 730      65737300 
 731              	.LASF7:
 732 0113 6C6F6E67 		.ascii	"long long unsigned int\000"
 732      206C6F6E 
 732      6720756E 
 732      7369676E 
 732      65642069 
 733              	.LASF17:
 734 012a 626F6F74 		.ascii	"bootloadable_Load\000"
 734      6C6F6164 
 734      61626C65 
 734      5F4C6F61 
 734      6400
 735              	.LASF20:
 736 013c 72756E54 		.ascii	"runType\000"
 736      79706500 
 737              	.LASF27:
 738 0144 474E5520 		.ascii	"GNU C11 5.4.1 20160609 (release) [ARM/embedded-5-br"
 738      43313120 
 738      352E342E 
 738      31203230 
 738      31363036 
 739 0177 616E6368 		.ascii	"anch revision 237715] -mcpu=cortex-m0 -mthumb -g -O"
 739      20726576 
 739      6973696F 
 739      6E203233 
 739      37373135 
 740 01aa 67202D66 		.ascii	"g -ffunction-sections -ffat-lto-objects\000"
 740      66756E63 
 740      74696F6E 
 740      2D736563 
 740      74696F6E 
 741              	.LASF24:
 742 01d2 62617365 		.ascii	"baseAddr\000"
 742      41646472 
 742      00
 743              	.LASF16:
 744 01db 73697A65 		.ascii	"sizetype\000"
 744      74797065 
 744      00
ARM GAS  C:\Users\Usuario\AppData\Local\Temp\ccYKd0IS.s 			page 20


 745              	.LASF6:
 746 01e4 6C6F6E67 		.ascii	"long long int\000"
 746      206C6F6E 
 746      6720696E 
 746      7400
 747              	.LASF14:
 748 01f2 63686172 		.ascii	"char\000"
 748      00
 749              	.LASF28:
 750 01f7 47656E65 		.ascii	"Generated_Source\\PSoC4\\bootloadable.c\000"
 750      72617465 
 750      645F536F 
 750      75726365 
 750      5C50536F 
 751              	.LASF2:
 752 021d 73686F72 		.ascii	"short int\000"
 752      7420696E 
 752      7400
 753              	.LASF25:
 754 0227 4379536F 		.ascii	"CySoftwareReset\000"
 754      66747761 
 754      72655265 
 754      73657400 
 755              	.LASF4:
 756 0237 6C6F6E67 		.ascii	"long int\000"
 756      20696E74 
 756      00
 757              	.LASF15:
 758 0240 6C6F6E67 		.ascii	"long double\000"
 758      20646F75 
 758      626C6500 
 759              	.LASF0:
 760 024c 7369676E 		.ascii	"signed char\000"
 760      65642063 
 760      68617200 
 761              	.LASF30:
 762 0258 63794274 		.ascii	"cyBtldrRunType\000"
 762      6C647252 
 762      756E5479 
 762      706500
 763              		.ident	"GCC: (GNU Tools for ARM Embedded Processors) 5.4.1 20160609 (release) [ARM/embedded-5-bran
