===========Generating Bitstream===========
# UDB_PA_0 (count=15)
00000000: 00 00 99 00 00 00 00 00 00 00 00 00 00 00 00
# IOPINS0_0 (count=28)
0000000f: ff 00 00 00 00 00 00 00 92 24 49 00 00 00 00 00
0000001f: 00 00 00 00 00 00 00 00 00 00 00 00
# UDB_PA_1 (count=15)
0000002b: 00 00 99 00 00 00 00 00 00 00 00 00 00 00 00
# IOPINS0_1 (count=28)
0000003a: 3f 00 00 00 00 00 00 00 96 25 d9 00 00 00 00 00
0000004a: 00 00 00 00 00 00 00 00 00 00 00 00
# UDB_PA_2 (count=15)
00000056: 00 00 99 00 00 00 00 00 00 00 00 00 00 00 00
# IOPINS0_2 (count=28)
00000065: 5f 00 00 00 00 00 00 00 00 60 db 00 00 00 00 00
00000075: 00 00 00 00 00 00 00 00 0f 00 00 00
# UDB_PA_3 (count=15)
00000081: 00 00 99 00 00 00 00 00 00 00 00 00 00 00 00
# IOPINS0_3 (count=28)
00000090: 00 00 00 00 00 00 00 00 b6 6d db 00 00 00 00 00
000000a0: 00 00 00 00 00 00 00 00 00 00 00 00
# IOPINS0_4 (count=28)
000000ac: 02 00 00 00 00 00 00 00 b1 0d 00 00 00 00 00 00
000000bc: 00 00 00 00 00 00 00 00 02 00 00 00
# INT_SELECT (count=4)
000000c8: 00 00 00 00
# INT_CONFIG (count=4)
000000cc: 00 00 00 00
# CYDEV_CLK_SELECT00 (count=64)
000000d0: 00 00 00 00 00 00 00 00 31 00 00 00 00 00 00 00
000000e0: 00 00 00 00 00 00 00 00 00 00 00 00 21 00 00 00
000000f0: 30 00 00 00 11 00 00 00 10 00 00 00 20 00 00 00
00000100: 00 00 00 00 00 00 00 00 00 00 00 00 00 00 00 00

# CYDEV_CLK_IMO_CONFIG (count=4)
00000110: 00 00 00 82
# CYDEV_CLK_ILO_CONFIG (count=4)
00000114: 06 00 00 80
# CYDEV_CLK_SELECT (count=4)
00000118: 00 00 00 00
# CYDEV_WDT_CONFIG (count=4)
0000011c: 00 00 00 00
# CYDEV_CLK_DIVIDER_A00 (count=4)
00000120: 01 00 00 80
# CYDEV_CLK_DIVIDER_B00 (count=4)
00000124: 01 00 00 80
# CYDEV_CLK_DIVIDER_C00 (count=4)
00000128: 01 00 00 80
# CYDEV_CLK_DIVIDER_A01 (count=4)
0000012c: 01 00 00 80
# CYDEV_CLK_DIVIDER_B01 (count=4)
00000130: 07 00 00 80
# CYDEV_CLK_DIVIDER_C01 (count=4)
00000134: 10 00 00 80
# CYDEV_CLK_DIVIDER_A02 (count=4)
00000138: 00 00 00 00
# CYDEV_CLK_DIVIDER_B02 (count=4)
0000013c: 00 00 00 00
# CYDEV_CLK_DIVIDER_C02 (count=4)
00000140: 00 00 00 00
# CYDEV_CLK_DIVIDER_FRAC_A00 (count=4)
00000144: 00 00 00 00
# CYDEV_CLK_DIVIDER_FRAC_B00 (count=4)
00000148: 00 00 00 00
# CYDEV_CLK_DIVIDER_FRAC_C00 (count=4)
0000014c: 00 00 00 00
# TCPWM_CNT0 (count=4)
00000150: 10 00 00 00
# TCPWM_CNT1 (count=4)
00000154: 10 00 00 00
# TCPWM_CNT2 (count=4)
00000158: 10 00 00 00
# TCPWM_CNT3 (count=4)
0000015c: 10 00 00 00
# UDB_0_1_0_CONFIG (count=128)
00000160: 00 00 00 00 00 00 00 00 00 00 00 00 00 00 00 00
00000170: 00 00 00 00 00 00 00 00 00 00 00 00 00 00 00 00
00000180: 00 00 00 00 00 00 00 00 00 00 00 00 00 00 00 00
00000190: 00 00 00 00 00 00 00 00 00 00 00 00 00 00 00 00
000001a0: 00 00 00 00 00 00 00 00 00 00 00 00 00 00 00 00
000001b0: 00 00 00 00 00 00 00 00 00 00 00 00 00 00 00 00
000001c0: 00 00 00 00 00 00 00 00 00 00 00 00 00 00 00 00
000001d0: 00 00 00 00 00 00 00 00 00 00 00 00 00 00 00 00

# UDB_0_1_1_CONFIG (count=128)
000001e0: 00 00 00 00 00 00 00 00 00 00 00 00 00 00 00 00
000001f0: 00 00 00 00 00 00 00 00 00 00 00 00 00 00 00 00
00000200: 00 00 00 00 00 00 00 00 00 00 00 00 00 00 00 00
00000210: 00 00 00 00 00 00 00 00 00 00 00 00 00 00 00 00
00000220: 00 00 00 00 00 00 00 00 00 00 00 00 00 00 00 00
00000230: 00 00 00 00 00 00 00 00 00 00 00 00 00 00 00 00
00000240: 00 00 00 00 00 00 00 00 00 00 00 00 00 00 00 00
00000250: 00 00 00 00 00 00 00 00 00 00 00 00 00 00 00 00

# UDB_0_0_1_CONFIG (count=128)
00000260: 00 00 00 00 00 00 00 00 00 00 00 00 00 00 00 00
00000270: 00 00 00 00 00 00 00 00 00 00 00 00 00 00 00 00
00000280: 00 00 00 00 00 00 00 00 00 00 00 00 00 00 00 00
00000290: 00 00 00 00 00 00 00 00 00 00 00 00 00 00 00 00
000002a0: 00 00 00 00 00 00 00 00 00 00 00 00 00 00 00 00
000002b0: 00 00 00 00 00 00 00 00 00 00 00 00 00 00 00 00
000002c0: 00 00 00 00 00 00 00 00 00 00 00 00 00 00 00 00
000002d0: 00 00 00 00 00 00 00 00 00 00 00 00 00 00 00 00

# UDB_0_0_0_CONFIG (count=128)
000002e0: 00 00 00 00 00 00 00 00 00 00 00 00 00 00 00 00
000002f0: 00 00 00 00 00 00 00 00 00 00 00 00 00 00 00 00
00000300: 00 00 00 00 00 00 00 00 00 00 00 00 00 00 00 00
00000310: 00 00 00 00 00 00 00 00 00 00 00 00 00 00 00 00
00000320: 00 00 00 00 00 00 00 00 00 00 00 00 00 00 00 00
00000330: 00 00 00 00 00 00 00 00 00 00 00 00 00 00 00 00
00000340: 00 00 00 00 00 00 00 00 00 00 00 00 00 00 00 00
00000350: 00 00 00 00 00 00 00 00 00 00 00 00 00 00 00 00

# UWRK_B0_WRK_DP_BITS (count=64)
00000360: 00 00 00 00 00 00 00 00 00 00 00 00 00 00 00 00
00000370: 00 00 00 00 00 00 00 00 00 00 00 00 00 00 00 00
00000380: 00 00 00 00 00 00 00 00 00 00 00 00 00 00 00 00
00000390: 00 00 00 00 00 00 00 00 00 00 00 00 00 00 00 00

# UWRK_B0_WRK_STATCTL_BITS + 0x00000070 (count=32)
000003a0: 00 00 00 00 00 00 00 00 00 00 00 00 00 00 00 00
000003b0: 00 00 00 00 00 00 00 00 00 00 00 00 00 00 00 00

# UDB_BCTL0_DRV (count=3)
000003c0: 00 00 00
# UDB_BCTL0_BOTSEL_L (count=12)
000003c3: 00 00 00 00 00 00 00 00 00 00 00 00
# DSISWITCH_0_0 (count=128)
000003cf: 00 00 00 00 00 00 00 00 00 00 00 00 00 00 00 00
000003df: 00 00 00 00 00 00 00 00 00 00 00 00 00 00 00 00
000003ef: 00 00 00 00 00 00 00 00 00 00 00 00 00 00 00 00
000003ff: 00 00 00 00 00 00 00 00 00 00 00 00 00 00 00 00
0000040f: 00 00 00 00 00 00 00 00 00 00 00 00 00 00 00 00
0000041f: 00 00 00 00 00 00 00 00 00 00 00 00 00 00 00 00
0000042f: 00 00 00 00 00 00 00 00 00 00 00 00 00 00 00 00
0000043f: 00 00 00 00 00 00 00 00 00 00 00 00 00 00 00 00

# DSI0_0_HV_ROUTING + 0x00000080 (count=128)
0000044f: 00 00 00 00 00 00 00 00 00 00 00 00 00 00 00 00
0000045f: 00 00 00 00 00 00 00 00 00 00 00 00 00 00 00 00
0000046f: 00 00 00 00 00 00 00 00 00 00 00 00 00 00 00 00
0000047f: 00 00 00 00 00 00 00 00 00 00 00 00 00 00 00 00
0000048f: 00 00 00 00 00 00 00 00 00 00 00 00 00 00 00 00
0000049f: 00 00 00 00 00 00 00 00 00 00 00 00 00 00 00 00
000004af: 00 00 00 00 00 00 00 00 00 00 00 00 00 00 00 00
000004bf: 00 00 00 00 00 00 00 00 00 00 00 00 00 00 00 00

# DSISWITCH_0_1 (count=128)
000004cf: 00 00 00 00 00 00 00 00 00 00 00 00 00 00 00 00
000004df: 00 00 00 00 00 00 00 00 00 00 00 00 00 00 00 00
000004ef: 00 00 00 00 00 00 00 00 00 00 00 00 00 00 00 00
000004ff: 00 00 00 00 00 00 00 00 00 00 00 00 00 00 00 00
0000050f: 00 00 00 00 00 00 00 00 00 00 00 00 00 00 00 00
0000051f: 00 00 00 00 00 00 00 00 00 00 00 00 00 00 00 00
0000052f: 00 00 00 00 00 00 00 00 00 00 00 00 00 00 00 00
0000053f: 00 00 00 00 00 00 00 00 00 00 00 00 00 00 00 00

# DSI0_1_HV_ROUTING + 0x00000080 (count=128)
0000054f: 00 00 00 00 00 00 00 00 00 00 00 00 00 00 00 00
0000055f: 00 00 00 00 00 00 00 00 00 00 00 00 00 00 00 00
0000056f: 00 00 00 00 00 00 00 00 00 00 00 00 00 00 00 00
0000057f: 00 00 00 00 00 00 00 00 00 00 00 00 00 00 00 00
0000058f: 00 00 00 00 00 00 00 00 00 00 00 00 00 00 00 00
0000059f: 00 00 00 00 00 00 00 00 00 00 00 00 00 00 00 00
000005af: 00 00 00 00 00 00 00 00 00 00 00 00 00 00 00 00
000005bf: 00 00 00 00 00 00 00 00 00 00 00 00 00 00 00 00

# UDBSWITCH_0_0 (count=128)
000005cf: 00 00 00 00 00 00 00 00 00 00 00 00 00 00 00 00
000005df: 00 00 00 00 00 00 00 00 00 00 00 00 00 00 00 00
000005ef: 00 00 00 00 00 00 00 00 00 00 00 00 00 00 00 00
000005ff: 00 00 00 00 00 00 00 00 00 00 00 00 00 00 00 00
0000060f: 00 00 00 00 00 00 00 00 00 00 00 00 00 00 00 00
0000061f: 00 00 00 00 00 00 00 00 00 00 00 00 00 00 00 00
0000062f: 00 00 00 00 00 00 00 00 00 00 00 00 00 00 00 00
0000063f: 00 00 00 00 00 00 00 00 00 00 00 00 00 00 00 00

# UDB_1_0_HV_ROUTING + 0x00000080 (count=128)
0000064f: 00 00 00 00 00 00 00 00 00 00 00 00 00 00 00 00
0000065f: 00 00 00 00 00 00 00 00 00 00 00 00 00 00 00 00
0000066f: 00 00 00 00 00 00 00 00 00 00 00 00 00 00 00 00
0000067f: 00 00 00 00 00 00 00 00 00 00 00 00 00 00 00 00
0000068f: 00 00 00 00 00 00 00 00 00 00 00 00 00 00 00 00
0000069f: 00 00 00 00 00 00 00 00 00 00 00 00 00 00 00 00
000006af: 00 00 00 00 00 00 00 00 00 00 00 00 00 00 00 00
000006bf: 00 00 00 00 00 00 00 00 00 00 00 00 00 00 00 00

# UDBSWITCH_0_1 (count=128)
000006cf: 00 00 00 00 00 00 00 00 00 00 00 00 00 00 00 00
000006df: 00 00 00 00 00 00 00 00 00 00 00 00 00 00 00 00
000006ef: 00 00 00 00 00 00 00 00 00 00 00 00 00 00 00 00
000006ff: 00 00 00 00 00 00 00 00 00 00 00 00 00 00 00 00
0000070f: 00 00 00 00 00 00 00 00 00 00 00 00 00 00 00 00
0000071f: 00 00 00 00 00 00 00 00 00 00 00 00 00 00 00 00
0000072f: 00 00 00 00 00 00 00 00 00 00 00 00 00 00 00 00
0000073f: 00 00 00 00 00 00 00 00 00 00 00 00 00 00 00 00

# UDB_1_1_HV_ROUTING + 0x00000080 (count=128)
0000074f: 00 00 00 00 00 00 00 00 00 00 00 00 00 00 00 00
0000075f: 00 00 00 00 00 00 00 00 00 00 00 00 00 00 00 00
0000076f: 00 00 00 00 00 00 00 00 00 00 00 00 00 00 00 00
0000077f: 00 00 00 00 00 00 00 00 00 00 00 00 00 00 00 00
0000078f: 00 00 00 00 00 00 00 00 00 00 00 00 00 00 00 00
0000079f: 00 00 00 00 00 00 00 00 00 00 00 00 00 00 00 00
000007af: 00 00 00 00 00 00 00 00 00 00 00 00 00 00 00 00
000007bf: 00 00 00 00 00 00 00 00 00 00 00 00 00 00 00 00

# DSISWITCH_1_0 (count=128)
000007cf: 00 00 00 00 00 00 00 00 00 00 00 00 00 00 00 00
000007df: 00 00 00 00 00 00 00 00 00 00 00 00 00 00 00 00
000007ef: 00 00 00 00 00 00 00 00 00 00 00 00 00 00 00 00
000007ff: 00 00 00 00 00 00 00 00 00 00 00 00 00 00 00 00
0000080f: 00 00 00 00 00 00 00 00 00 00 00 00 00 00 00 00
0000081f: 00 00 00 00 00 00 00 00 00 00 00 00 00 00 00 00
0000082f: 00 00 00 00 00 00 00 00 00 00 00 00 00 00 00 00
0000083f: 00 00 00 00 00 00 00 00 00 00 00 00 00 00 00 00

# DSI2_0_HV_ROUTING + 0x00000080 (count=128)
0000084f: 00 00 00 00 00 00 00 00 00 00 00 00 00 00 00 00
0000085f: 00 00 00 00 00 00 00 00 00 00 00 00 00 00 00 00
0000086f: 00 00 00 00 00 00 00 00 00 00 00 00 00 00 00 00
0000087f: 00 00 00 00 00 00 00 00 00 00 00 00 00 00 00 00
0000088f: 00 00 00 00 00 00 00 00 00 00 00 00 00 00 00 00
0000089f: 00 00 00 00 00 00 00 00 00 00 00 00 00 00 00 00
000008af: 00 00 00 00 00 00 00 00 00 00 00 00 00 00 00 00
000008bf: 00 00 00 00 00 00 00 00 00 00 00 00 00 00 00 00

# DSISWITCH_1_1 (count=128)
000008cf: 00 00 00 00 00 00 00 00 00 00 00 00 00 00 00 00
000008df: 00 00 00 00 00 00 00 00 00 00 00 00 00 00 00 00
000008ef: 00 00 00 00 00 00 00 00 00 00 00 00 00 00 00 00
000008ff: 00 00 00 00 00 00 00 00 00 00 00 00 00 00 00 00
0000090f: 00 00 00 00 00 00 00 00 00 00 00 00 00 00 00 00
0000091f: 00 00 00 00 00 00 00 00 00 00 00 00 00 00 00 00
0000092f: 00 00 00 00 00 00 00 00 00 00 00 00 00 00 00 00
0000093f: 00 00 00 00 00 00 00 00 00 00 00 00 00 00 00 00

# DSI2_1_HV_ROUTING + 0x00000080 (count=128)
0000094f: 00 00 00 00 00 00 00 00 00 00 00 00 00 00 00 00
0000095f: 00 00 00 00 00 00 00 00 00 00 00 00 00 00 00 00
0000096f: 00 00 00 00 00 00 00 00 00 00 00 00 00 00 00 00
0000097f: 00 00 00 00 00 00 00 00 00 00 00 00 00 00 00 00
0000098f: 00 00 00 00 00 00 00 00 00 00 00 00 00 00 00 00
0000099f: 00 00 00 00 00 00 00 00 00 00 00 00 00 00 00 00
000009af: 00 00 00 00 00 00 00 00 00 00 00 00 00 00 00 00
000009bf: 00 00 00 00 00 00 00 00 00 00 00 00 00 00 00 00

# HSIOM (count=4096)
000009cf: 00 00 00 00 08 08 00 00 00 00 08 08 00 ee 00 00
000009df: 99 00 00 00 00 00 00 00 00 00 00 00 00 00 00 00
000009ef: 00 00 00 00 00 00 00 00 00 00 00 00 00 00 00 00
000009ff: 00 00 00 00 00 00 00 00 00 00 00 00 00 00 00 00
00000a0f: 00 00 00 00 00 00 00 00 00 00 00 00 00 00 00 00
00000a1f: 00 00 00 00 00 00 00 00 00 00 00 00 00 00 00 00
00000a2f: 00 00 00 00 00 00 00 00 00 00 00 00 00 00 00 00
00000a3f: 00 00 00 00 00 00 00 00 00 00 00 00 00 00 00 00
00000a4f: 00 00 00 00 00 00 00 00 00 00 00 00 00 00 00 00
00000a5f: 00 00 00 00 00 00 00 00 00 00 00 00 00 00 00 00
00000a6f: 00 00 00 00 00 00 00 00 00 00 00 00 00 00 00 00
00000a7f: 00 00 00 00 00 00 00 00 00 00 00 00 00 00 00 00
00000a8f: 00 00 00 00 00 00 00 00 00 00 00 00 00 00 00 00
00000a9f: 00 00 00 00 00 00 00 00 00 00 00 00 00 00 00 00
00000aaf: 00 00 00 00 00 00 00 00 00 00 00 00 00 00 00 00
00000abf: 00 00 00 00 00 00 00 00 00 00 00 00 00 00 00 00
00000acf: 00 00 00 00 00 00 00 00 00 00 00 00 00 00 00 00
00000adf: 00 00 00 00 00 00 00 00 00 00 00 00 00 00 00 00
00000aef: 00 00 00 00 00 00 00 00 00 00 00 00 00 00 00 00
00000aff: 00 00 00 00 00 00 00 00 00 00 00 00 00 00 00 00
00000b0f: 00 00 00 00 00 00 00 00 00 00 00 00 00 00 00 00
00000b1f: 00 00 00 00 00 00 00 00 00 00 00 00 00 00 00 00
00000b2f: 00 00 00 00 00 00 00 00 00 00 00 00 00 00 00 00
00000b3f: 00 00 00 00 00 00 00 00 00 00 00 00 00 00 00 00
00000b4f: 00 00 00 00 00 00 00 00 00 00 00 00 00 00 00 00
00000b5f: 00 00 00 00 00 00 00 00 00 00 00 00 00 00 00 00
00000b6f: 00 00 00 00 00 00 00 00 00 00 00 00 00 00 00 00
00000b7f: 00 00 00 00 00 00 00 00 00 00 00 00 00 00 00 00
00000b8f: 00 00 00 00 00 00 00 00 00 00 00 00 00 00 00 00
00000b9f: 00 00 00 00 00 00 00 00 00 00 00 00 00 00 00 00
00000baf: 00 00 00 00 00 00 00 00 00 00 00 00 00 00 00 00
00000bbf: 00 00 00 00 00 00 00 00 00 00 00 00 00 00 00 00
00000bcf: 00 00 00 00 00 00 00 00 00 00 00 00 00 00 00 00
00000bdf: 00 00 00 00 00 00 00 00 00 00 00 00 00 00 00 00
00000bef: 00 00 00 00 00 00 00 00 00 00 00 00 00 00 00 00
00000bff: 00 00 00 00 00 00 00 00 00 00 00 00 00 00 00 00
00000c0f: 00 00 00 00 00 00 00 00 00 00 00 00 00 00 00 00
00000c1f: 00 00 00 00 00 00 00 00 00 00 00 00 00 00 00 00
00000c2f: 00 00 00 00 00 00 00 00 00 00 00 00 00 00 00 00
00000c3f: 00 00 00 00 00 00 00 00 00 00 00 00 00 00 00 00
00000c4f: 00 00 00 00 00 00 00 00 00 00 00 00 00 00 00 00
00000c5f: 00 00 00 00 00 00 00 00 00 00 00 00 00 00 00 00
00000c6f: 00 00 00 00 00 00 00 00 00 00 00 00 00 00 00 00
00000c7f: 00 00 00 00 00 00 00 00 00 00 00 00 00 00 00 00
00000c8f: 00 00 00 00 00 00 00 00 00 00 00 00 00 00 00 00
00000c9f: 00 00 00 00 00 00 00 00 00 00 00 00 00 00 00 00
00000caf: 00 00 00 00 00 00 00 00 00 00 00 00 00 00 00 00
00000cbf: 00 00 00 00 00 00 00 00 00 00 00 00 00 00 00 00
00000ccf: 00 00 00 00 00 00 00 00 00 00 00 00 00 00 00 00
00000cdf: 00 00 00 00 00 00 00 00 00 00 00 00 00 00 00 00
00000cef: 00 00 00 00 00 00 00 00 00 00 00 00 00 00 00 00
00000cff: 00 00 00 00 00 00 00 00 00 00 00 00 00 00 00 00
00000d0f: 00 00 00 00 00 00 00 00 00 00 00 00 00 00 00 00
00000d1f: 00 00 00 00 00 00 00 00 00 00 00 00 00 00 00 00
00000d2f: 00 00 00 00 00 00 00 00 00 00 00 00 00 00 00 00
00000d3f: 00 00 00 00 00 00 00 00 00 00 00 00 00 00 00 00
00000d4f: 00 00 00 00 00 00 00 00 00 00 00 00 00 00 00 00
00000d5f: 00 00 00 00 00 00 00 00 00 00 00 00 00 00 00 00
00000d6f: 00 00 00 00 00 00 00 00 00 00 00 00 00 00 00 00
00000d7f: 00 00 00 00 00 00 00 00 00 00 00 00 00 00 00 00
00000d8f: 00 00 00 00 00 00 00 00 00 00 00 00 00 00 00 00
00000d9f: 00 00 00 00 00 00 00 00 00 00 00 00 00 00 00 00
00000daf: 00 00 00 00 00 00 00 00 00 00 00 00 00 00 00 00
00000dbf: 00 00 00 00 00 00 00 00 00 00 00 00 00 00 00 00
00000dcf: 00 00 00 00 00 00 00 00 00 00 00 00 00 00 00 00
00000ddf: 00 00 00 00 00 00 00 00 00 00 00 00 00 00 00 00
00000def: 00 00 00 00 00 00 00 00 00 00 00 00 00 00 00 00
00000dff: 00 00 00 00 00 00 00 00 00 00 00 00 00 00 00 00
00000e0f: 00 00 00 00 00 00 00 00 00 00 00 00 00 00 00 00
00000e1f: 00 00 00 00 00 00 00 00 00 00 00 00 00 00 00 00
00000e2f: 00 00 00 00 00 00 00 00 00 00 00 00 00 00 00 00
00000e3f: 00 00 00 00 00 00 00 00 00 00 00 00 00 00 00 00
00000e4f: 00 00 00 00 00 00 00 00 00 00 00 00 00 00 00 00
00000e5f: 00 00 00 00 00 00 00 00 00 00 00 00 00 00 00 00
00000e6f: 00 00 00 00 00 00 00 00 00 00 00 00 00 00 00 00
00000e7f: 00 00 00 00 00 00 00 00 00 00 00 00 00 00 00 00
00000e8f: 00 00 00 00 00 00 00 00 00 00 00 00 00 00 00 00
00000e9f: 00 00 00 00 00 00 00 00 00 00 00 00 00 00 00 00
00000eaf: 00 00 00 00 00 00 00 00 00 00 00 00 00 00 00 00
00000ebf: 00 00 00 00 00 00 00 00 00 00 00 00 00 00 00 00
00000ecf: 00 00 00 00 00 00 00 00 00 00 00 00 00 00 00 00
00000edf: 00 00 00 00 00 00 00 00 00 00 00 00 00 00 00 00
00000eef: 00 00 00 00 00 00 00 00 00 00 00 00 00 00 00 00
00000eff: 00 00 00 00 00 00 00 00 00 00 00 00 00 00 00 00
00000f0f: 00 00 00 00 00 00 00 00 00 00 00 00 00 00 00 00
00000f1f: 00 00 00 00 00 00 00 00 00 00 00 00 00 00 00 00
00000f2f: 00 00 00 00 00 00 00 00 00 00 00 00 00 00 00 00
00000f3f: 00 00 00 00 00 00 00 00 00 00 00 00 00 00 00 00
00000f4f: 00 00 00 00 00 00 00 00 00 00 00 00 00 00 00 00
00000f5f: 00 00 00 00 00 00 00 00 00 00 00 00 00 00 00 00
00000f6f: 00 00 00 00 00 00 00 00 00 00 00 00 00 00 00 00
00000f7f: 00 00 00 00 00 00 00 00 00 00 00 00 00 00 00 00
00000f8f: 00 00 00 00 00 00 00 00 00 00 00 00 00 00 00 00
00000f9f: 00 00 00 00 00 00 00 00 00 00 00 00 00 00 00 00
00000faf: 00 00 00 00 00 00 00 00 00 00 00 00 00 00 00 00
00000fbf: 00 00 00 00 00 00 00 00 00 00 00 00 00 00 00 00
00000fcf: 00 00 00 00 00 00 00 00 00 00 00 00 00 00 00 00
00000fdf: 00 00 00 00 00 00 00 00 00 00 00 00 00 00 00 00
00000fef: 00 00 00 00 00 00 00 00 00 00 00 00 00 00 00 00
00000fff: 00 00 00 00 00 00 00 00 00 00 00 00 00 00 00 00
0000100f: 00 00 00 00 00 00 00 00 00 00 00 00 00 00 00 00
0000101f: 00 00 00 00 00 00 00 00 00 00 00 00 00 00 00 00
0000102f: 00 00 00 00 00 00 00 00 00 00 00 00 00 00 00 00
0000103f: 00 00 00 00 00 00 00 00 00 00 00 00 00 00 00 00
0000104f: 00 00 00 00 00 00 00 00 00 00 00 00 00 00 00 00
0000105f: 00 00 00 00 00 00 00 00 00 00 00 00 00 00 00 00
0000106f: 00 00 00 00 00 00 00 00 00 00 00 00 00 00 00 00
0000107f: 00 00 00 00 00 00 00 00 00 00 00 00 00 00 00 00
0000108f: 00 00 00 00 00 00 00 00 00 00 00 00 00 00 00 00
0000109f: 00 00 00 00 00 00 00 00 00 00 00 00 00 00 00 00
000010af: 00 00 00 00 00 00 00 00 00 00 00 00 00 00 00 00
000010bf: 00 00 00 00 00 00 00 00 00 00 00 00 00 00 00 00
000010cf: 00 00 00 00 00 00 00 00 00 00 00 00 00 00 00 00
000010df: 00 00 00 00 00 00 00 00 00 00 00 00 00 00 00 00
000010ef: 00 00 00 00 00 00 00 00 00 00 00 00 00 00 00 00
000010ff: 00 00 00 00 00 00 00 00 00 00 00 00 00 00 00 00
0000110f: 00 00 00 00 00 00 00 00 00 00 00 00 00 00 00 00
0000111f: 00 00 00 00 00 00 00 00 00 00 00 00 00 00 00 00
0000112f: 00 00 00 00 00 00 00 00 00 00 00 00 00 00 00 00
0000113f: 00 00 00 00 00 00 00 00 00 00 00 00 00 00 00 00
0000114f: 00 00 00 00 00 00 00 00 00 00 00 00 00 00 00 00
0000115f: 00 00 00 00 00 00 00 00 00 00 00 00 00 00 00 00
0000116f: 00 00 00 00 00 00 00 00 00 00 00 00 00 00 00 00
0000117f: 00 00 00 00 00 00 00 00 00 00 00 00 00 00 00 00
0000118f: 00 00 00 00 00 00 00 00 00 00 00 00 00 00 00 00
0000119f: 00 00 00 00 00 00 00 00 00 00 00 00 00 00 00 00
000011af: 00 00 00 00 00 00 00 00 00 00 00 00 00 00 00 00
000011bf: 00 00 00 00 00 00 00 00 00 00 00 00 00 00 00 00
000011cf: 00 00 00 00 00 00 00 00 00 00 00 00 00 00 00 00
000011df: 00 00 00 00 00 00 00 00 00 00 00 00 00 00 00 00
000011ef: 00 00 00 00 00 00 00 00 00 00 00 00 00 00 00 00
000011ff: 00 00 00 00 00 00 00 00 00 00 00 00 00 00 00 00
0000120f: 00 00 00 00 00 00 00 00 00 00 00 00 00 00 00 00
0000121f: 00 00 00 00 00 00 00 00 00 00 00 00 00 00 00 00
0000122f: 00 00 00 00 00 00 00 00 00 00 00 00 00 00 00 00
0000123f: 00 00 00 00 00 00 00 00 00 00 00 00 00 00 00 00
0000124f: 00 00 00 00 00 00 00 00 00 00 00 00 00 00 00 00
0000125f: 00 00 00 00 00 00 00 00 00 00 00 00 00 00 00 00
0000126f: 00 00 00 00 00 00 00 00 00 00 00 00 00 00 00 00
0000127f: 00 00 00 00 00 00 00 00 00 00 00 00 00 00 00 00
0000128f: 00 00 00 00 00 00 00 00 00 00 00 00 00 00 00 00
0000129f: 00 00 00 00 00 00 00 00 00 00 00 00 00 00 00 00
000012af: 00 00 00 00 00 00 00 00 00 00 00 00 00 00 00 00
000012bf: 00 00 00 00 00 00 00 00 00 00 00 00 00 00 00 00
000012cf: 00 00 00 00 00 00 00 00 00 00 00 00 00 00 00 00
000012df: 00 00 00 00 00 00 00 00 00 00 00 00 00 00 00 00
000012ef: 00 00 00 00 00 00 00 00 00 00 00 00 00 00 00 00
000012ff: 00 00 00 00 00 00 00 00 00 00 00 00 00 00 00 00
0000130f: 00 00 00 00 00 00 00 00 00 00 00 00 00 00 00 00
0000131f: 00 00 00 00 00 00 00 00 00 00 00 00 00 00 00 00
0000132f: 00 00 00 00 00 00 00 00 00 00 00 00 00 00 00 00
0000133f: 00 00 00 00 00 00 00 00 00 00 00 00 00 00 00 00
0000134f: 00 00 00 00 00 00 00 00 00 00 00 00 00 00 00 00
0000135f: 00 00 00 00 00 00 00 00 00 00 00 00 00 00 00 00
0000136f: 00 00 00 00 00 00 00 00 00 00 00 00 00 00 00 00
0000137f: 00 00 00 00 00 00 00 00 00 00 00 00 00 00 00 00
0000138f: 00 00 00 00 00 00 00 00 00 00 00 00 00 00 00 00
0000139f: 00 00 00 00 00 00 00 00 00 00 00 00 00 00 00 00
000013af: 00 00 00 00 00 00 00 00 00 00 00 00 00 00 00 00
000013bf: 00 00 00 00 00 00 00 00 00 00 00 00 00 00 00 00
000013cf: 00 00 00 00 00 00 00 00 00 00 00 00 00 00 00 00
000013df: 00 00 00 00 00 00 00 00 00 00 00 00 00 00 00 00
000013ef: 00 00 00 00 00 00 00 00 00 00 00 00 00 00 00 00
000013ff: 00 00 00 00 00 00 00 00 00 00 00 00 00 00 00 00
0000140f: 00 00 00 00 00 00 00 00 00 00 00 00 00 00 00 00
0000141f: 00 00 00 00 00 00 00 00 00 00 00 00 00 00 00 00
0000142f: 00 00 00 00 00 00 00 00 00 00 00 00 00 00 00 00
0000143f: 00 00 00 00 00 00 00 00 00 00 00 00 00 00 00 00
0000144f: 00 00 00 00 00 00 00 00 00 00 00 00 00 00 00 00
0000145f: 00 00 00 00 00 00 00 00 00 00 00 00 00 00 00 00
0000146f: 00 00 00 00 00 00 00 00 00 00 00 00 00 00 00 00
0000147f: 00 00 00 00 00 00 00 00 00 00 00 00 00 00 00 00
0000148f: 00 00 00 00 00 00 00 00 00 00 00 00 00 00 00 00
0000149f: 00 00 00 00 00 00 00 00 00 00 00 00 00 00 00 00
000014af: 00 00 00 00 00 00 00 00 00 00 00 00 00 00 00 00
000014bf: 00 00 00 00 00 00 00 00 00 00 00 00 00 00 00 00
000014cf: 00 00 00 00 00 00 00 00 00 00 00 00 00 00 00 00
000014df: 00 00 00 00 00 00 00 00 00 00 00 00 00 00 00 00
000014ef: 00 00 00 00 00 00 00 00 00 00 00 00 00 00 00 00
000014ff: 00 00 00 00 00 00 00 00 00 00 00 00 00 00 00 00
0000150f: 00 00 00 00 00 00 00 00 00 00 00 00 00 00 00 00
0000151f: 00 00 00 00 00 00 00 00 00 00 00 00 00 00 00 00
0000152f: 00 00 00 00 00 00 00 00 00 00 00 00 00 00 00 00
0000153f: 00 00 00 00 00 00 00 00 00 00 00 00 00 00 00 00
0000154f: 00 00 00 00 00 00 00 00 00 00 00 00 00 00 00 00
0000155f: 00 00 00 00 00 00 00 00 00 00 00 00 00 00 00 00
0000156f: 00 00 00 00 00 00 00 00 00 00 00 00 00 00 00 00
0000157f: 00 00 00 00 00 00 00 00 00 00 00 00 00 00 00 00
0000158f: 00 00 00 00 00 00 00 00 00 00 00 00 00 00 00 00
0000159f: 00 00 00 00 00 00 00 00 00 00 00 00 00 00 00 00
000015af: 00 00 00 00 00 00 00 00 00 00 00 00 00 00 00 00
000015bf: 00 00 00 00 00 00 00 00 00 00 00 00 00 00 00 00
000015cf: 00 00 00 00 00 00 00 00 00 00 00 00 00 00 00 00
000015df: 00 00 00 00 00 00 00 00 00 00 00 00 00 00 00 00
000015ef: 00 00 00 00 00 00 00 00 00 00 00 00 00 00 00 00
000015ff: 00 00 00 00 00 00 00 00 00 00 00 00 00 00 00 00
0000160f: 00 00 00 00 00 00 00 00 00 00 00 00 00 00 00 00
0000161f: 00 00 00 00 00 00 00 00 00 00 00 00 00 00 00 00
0000162f: 00 00 00 00 00 00 00 00 00 00 00 00 00 00 00 00
0000163f: 00 00 00 00 00 00 00 00 00 00 00 00 00 00 00 00
0000164f: 00 00 00 00 00 00 00 00 00 00 00 00 00 00 00 00
0000165f: 00 00 00 00 00 00 00 00 00 00 00 00 00 00 00 00
0000166f: 00 00 00 00 00 00 00 00 00 00 00 00 00 00 00 00
0000167f: 00 00 00 00 00 00 00 00 00 00 00 00 00 00 00 00
0000168f: 00 00 00 00 00 00 00 00 00 00 00 00 00 00 00 00
0000169f: 00 00 00 00 00 00 00 00 00 00 00 00 00 00 00 00
000016af: 00 00 00 00 00 00 00 00 00 00 00 00 00 00 00 00
000016bf: 00 00 00 00 00 00 00 00 00 00 00 00 00 00 00 00
000016cf: 00 00 00 00 00 00 00 00 00 00 00 00 00 00 00 00
000016df: 00 00 00 00 00 00 00 00 00 00 00 00 00 00 00 00
000016ef: 00 00 00 00 00 00 00 00 00 00 00 00 00 00 00 00
000016ff: 00 00 00 00 00 00 00 00 00 00 00 00 00 00 00 00
0000170f: 00 00 00 00 00 00 00 00 00 00 00 00 00 00 00 00
0000171f: 00 00 00 00 00 00 00 00 00 00 00 00 00 00 00 00
0000172f: 00 00 00 00 00 00 00 00 00 00 00 00 00 00 00 00
0000173f: 00 00 00 00 00 00 00 00 00 00 00 00 00 00 00 00
0000174f: 00 00 00 00 00 00 00 00 00 00 00 00 00 00 00 00
0000175f: 00 00 00 00 00 00 00 00 00 00 00 00 00 00 00 00
0000176f: 00 00 00 00 00 00 00 00 00 00 00 00 00 00 00 00
0000177f: 00 00 00 00 00 00 00 00 00 00 00 00 00 00 00 00
0000178f: 00 00 00 00 00 00 00 00 00 00 00 00 00 00 00 00
0000179f: 00 00 00 00 00 00 00 00 00 00 00 00 00 00 00 00
000017af: 00 00 00 00 00 00 00 00 00 00 00 00 00 00 00 00
000017bf: 00 00 00 00 00 00 00 00 00 00 00 00 00 00 00 00
000017cf: 00 00 00 00 00 00 00 00 00 00 00 00 00 00 00 00
000017df: 00 00 00 00 00 00 00 00 00 00 00 00 00 00 00 00
000017ef: 00 00 00 00 00 00 00 00 00 00 00 00 00 00 00 00
000017ff: 00 00 00 00 00 00 00 00 00 00 00 00 00 00 00 00
0000180f: 00 00 00 00 00 00 00 00 00 00 00 00 00 00 00 00
0000181f: 00 00 00 00 00 00 00 00 00 00 00 00 00 00 00 00
0000182f: 00 00 00 00 00 00 00 00 00 00 00 00 00 00 00 00
0000183f: 00 00 00 00 00 00 00 00 00 00 00 00 00 00 00 00
0000184f: 00 00 00 00 00 00 00 00 00 00 00 00 00 00 00 00
0000185f: 00 00 00 00 00 00 00 00 00 00 00 00 00 00 00 00
0000186f: 00 00 00 00 00 00 00 00 00 00 00 00 00 00 00 00
0000187f: 00 00 00 00 00 00 00 00 00 00 00 00 00 00 00 00
0000188f: 00 00 00 00 00 00 00 00 00 00 00 00 00 00 00 00
0000189f: 00 00 00 00 00 00 00 00 00 00 00 00 00 00 00 00
000018af: 00 00 00 00 00 00 00 00 00 00 00 00 00 00 00 00
000018bf: 00 00 00 00 00 00 00 00 00 00 00 00 00 00 00 00
000018cf: 00 00 00 00 00 00 00 00 00 00 00 00 00 00 00 00
000018df: 00 00 00 00 00 00 00 00 00 00 00 00 00 00 00 00
000018ef: 00 00 00 00 00 00 00 00 00 00 00 00 00 00 00 00
000018ff: 00 00 00 00 00 00 00 00 00 00 00 00 00 00 00 00
0000190f: 00 00 00 00 00 00 00 00 00 00 00 00 00 00 00 00
0000191f: 00 00 00 00 00 00 00 00 00 00 00 00 00 00 00 00
0000192f: 00 00 00 00 00 00 00 00 00 00 00 00 00 00 00 00
0000193f: 00 00 00 00 00 00 00 00 00 00 00 00 00 00 00 00
0000194f: 00 00 00 00 00 00 00 00 00 00 00 00 00 00 00 00
0000195f: 00 00 00 00 00 00 00 00 00 00 00 00 00 00 00 00
0000196f: 00 00 00 00 00 00 00 00 00 00 00 00 00 00 00 00
0000197f: 00 00 00 00 00 00 00 00 00 00 00 00 00 00 00 00
0000198f: 00 00 00 00 00 00 00 00 00 00 00 00 00 00 00 00
0000199f: 00 00 00 00 00 00 00 00 00 00 00 00 00 00 00 00
000019af: 00 00 00 00 00 00 00 00 00 00 00 00 00 00 00 00
000019bf: 00 00 00 00 00 00 00 00 00 00 00 00 00 00 00 00

